class,constitution,dexterity,homeland,id,intelligence,race,sex,statSum,strength,submitted,willpower
rogue,16,17,Boarheaded Trolloc,485543,7,trolloc,male,65,18,2024-02-25T18:00:33.1594992Z,7
rogue,18,15,Boarheaded Trolloc,485541,7,trolloc,male,65,16,2024-02-25T17:58:46.4278469Z,9
rogue,17,18,Boarheaded Trolloc,485539,11,trolloc,male,68,15,2024-02-25T17:57:13.6817198Z,7
rogue,17,16,Boarheaded Trolloc,485536,9,trolloc,male,70,17,2024-02-25T17:55:26.8500552Z,11
rogue,19,16,Boarheaded Trolloc,485534,9,trolloc,male,66,15,2024-02-25T17:54:07.280408Z,7
rogue,16,16,Boarheaded Trolloc,485532,11,trolloc,male,66,17,2024-02-25T17:52:23.2623756Z,6
rogue,15,18,Boarheaded Trolloc,485530,8,trolloc,male,67,17,2024-02-25T17:50:55.1806149Z,9
rogue,18,17,Boarheaded Trolloc,485528,10,trolloc,male,69,15,2024-02-25T17:49:27.128226Z,9
rogue,16,18,Boarheaded Trolloc,485525,9,trolloc,male,66,18,2024-02-25T17:47:25.0634365Z,5
rogue,15,18,Boarheaded Trolloc,485523,7,trolloc,male,66,17,2024-02-25T17:46:17.2372453Z,9
rogue,15,17,Boarheaded Trolloc,485521,9,trolloc,male,65,17,2024-02-25T17:45:00.8701617Z,7
rogue,12,17,Boarheaded Trolloc,485519,11,trolloc,male,65,15,2024-02-25T17:43:18.8911236Z,10
rogue,16,14,Boarheaded Trolloc,485517,9,trolloc,male,66,18,2024-02-25T17:42:00.8219121Z,9
rogue,17,15,Boarheaded Trolloc,485515,10,trolloc,male,65,14,2024-02-25T17:40:18.0022615Z,9
rogue,15,16,Boarheaded Trolloc,485514,10,trolloc,male,66,15,2024-02-25T17:38:16.7575398Z,10
rogue,18,17,Boarheaded Trolloc,485513,8,trolloc,male,68,17,2024-02-25T17:37:06.5782447Z,8
rogue,19,17,Boarheaded Trolloc,485512,9,trolloc,male,65,14,2024-02-25T17:35:16.7643927Z,6
rogue,15,16,Boarheaded Trolloc,485511,11,trolloc,male,59,13,2024-02-25T17:33:29.4889536Z,4
rogue,15,15,Boarheaded Trolloc,485510,10,trolloc,male,68,17,2024-02-25T17:31:49.921059Z,11
rogue,17,18,Boarheaded Trolloc,485509,6,trolloc,male,66,16,2024-02-25T17:29:42.5573864Z,9
rogue,19,15,Boarheaded Trolloc,485508,12,trolloc,male,67,12,2024-02-25T17:28:20.6610091Z,9
rogue,17,15,Boarheaded Trolloc,485507,9,trolloc,male,65,17,2024-02-25T17:27:01.1693499Z,7
rogue,19,14,Boarheaded Trolloc,485506,10,trolloc,male,68,16,2024-02-25T17:25:45.3651302Z,9
rogue,17,14,Boarheaded Trolloc,485505,9,trolloc,male,65,16,2024-02-25T17:24:12.8026573Z,9
rogue,17,17,Boarheaded Trolloc,485504,11,trolloc,male,65,15,2024-02-25T17:22:37.3654306Z,5
rogue,14,15,Boarheaded Trolloc,485503,11,trolloc,male,65,19,2024-02-25T17:21:16.2588573Z,6
rogue,19,17,Boarheaded Trolloc,485502,9,trolloc,male,65,14,2024-02-25T17:19:53.5428803Z,6
rogue,16,14,Boarheaded Trolloc,485501,9,trolloc,male,65,16,2024-02-25T17:18:25.0528454Z,10
rogue,18,17,Boarheaded Trolloc,485500,9,trolloc,male,66,17,2024-02-25T17:16:45.9201883Z,5
rogue,15,17,Boarheaded Trolloc,485499,7,trolloc,male,66,17,2024-02-25T17:15:36.2904879Z,10
rogue,17,19,Boarheaded Trolloc,485498,9,trolloc,male,67,13,2024-02-25T17:13:48.1871321Z,9
rogue,16,17,Boarheaded Trolloc,485497,8,trolloc,male,65,19,2024-02-25T17:11:57.1412574Z,5
rogue,18,16,Boarheaded Trolloc,485496,10,trolloc,male,65,13,2024-02-25T17:10:02.0638137Z,8
rogue,19,18,Boarheaded Trolloc,485495,9,trolloc,male,68,14,2024-02-25T17:08:45.0458269Z,8
rogue,18,16,Boarheaded Trolloc,485494,10,trolloc,male,67,15,2024-02-25T17:07:24.3886283Z,8
rogue,17,18,Boarheaded Trolloc,485493,10,trolloc,male,66,15,2024-02-25T17:05:26.7954113Z,6
rogue,16,16,Boarheaded Trolloc,485492,9,trolloc,male,65,15,2024-02-25T17:03:57.9141745Z,9
rogue,18,16,Boarheaded Trolloc,485491,9,trolloc,male,67,18,2024-02-25T17:02:13.8723097Z,6
rogue,19,15,Boarheaded Trolloc,485490,8,trolloc,male,65,16,2024-02-25T17:00:37.218678Z,7
rogue,15,14,Boarheaded Trolloc,485489,10,trolloc,male,65,17,2024-02-25T16:59:10.7900344Z,9
rogue,18,17,Boarheaded Trolloc,485488,11,trolloc,male,67,14,2024-02-25T16:57:45.1668274Z,7
rogue,17,14,Boarheaded Trolloc,485487,10,trolloc,male,66,16,2024-02-25T16:56:07.6923792Z,9
rogue,16,16,Boarheaded Trolloc,485486,8,trolloc,male,66,17,2024-02-25T16:54:05.624639Z,9
rogue,16,16,Boarheaded Trolloc,485485,10,trolloc,male,68,17,2024-02-25T16:52:38.5457504Z,9
rogue,16,16,Boarheaded Trolloc,485484,9,trolloc,male,65,17,2024-02-25T16:51:09.9034062Z,7
rogue,18,17,Boarheaded Trolloc,485483,6,trolloc,male,59,12,2024-02-25T16:49:21.3533226Z,6
rogue,18,15,Boarheaded Trolloc,485482,10,trolloc,male,66,17,2024-02-25T16:47:35.2695925Z,6
rogue,15,18,Boarheaded Trolloc,485481,8,trolloc,male,66,18,2024-02-25T16:45:46.4785371Z,7
rogue,18,17,Boarheaded Trolloc,485480,11,trolloc,male,67,14,2024-02-25T16:43:49.9828595Z,7
rogue,16,14,Boarheaded Trolloc,485479,10,trolloc,male,66,18,2024-02-25T16:42:03.9072989Z,8
rogue,19,17,Boarheaded Trolloc,485478,7,trolloc,male,67,15,2024-02-25T16:40:38.0485022Z,9
rogue,16,15,Boarheaded Trolloc,485477,10,trolloc,male,65,16,2024-02-25T16:39:05.3297523Z,8
rogue,14,17,Boarheaded Trolloc,485476,8,trolloc,male,66,18,2024-02-25T16:37:40.516293Z,9
rogue,18,17,Boarheaded Trolloc,485475,8,trolloc,male,65,15,2024-02-25T16:36:05.4782488Z,7
rogue,16,16,Boarheaded Trolloc,485474,10,trolloc,male,65,18,2024-02-25T16:34:32.0989308Z,5
rogue,18,16,Boarheaded Trolloc,485473,9,trolloc,male,69,18,2024-02-25T16:33:31.0812592Z,8
rogue,18,17,Boarheaded Trolloc,485472,7,trolloc,male,66,18,2024-02-25T16:31:44.7636683Z,6
rogue,16,15,Boarheaded Trolloc,485471,11,trolloc,male,66,16,2024-02-25T16:30:16.5134099Z,8
rogue,16,13,Boarheaded Trolloc,485470,4,trolloc,male,61,17,2024-02-25T16:28:52.5319396Z,11
rogue,18,16,Boarheaded Trolloc,485469,11,trolloc,male,67,14,2024-02-25T16:27:26.1401319Z,8
rogue,18,17,Boarheaded Trolloc,485468,7,trolloc,male,65,13,2024-02-25T16:26:16.4680219Z,10
rogue,17,18,Boarheaded Trolloc,485467,6,trolloc,male,61,14,2024-02-25T16:24:35.3069322Z,6
rogue,15,17,Boarheaded Trolloc,485466,11,trolloc,male,66,17,2024-02-25T16:23:16.0207082Z,6
rogue,16,16,Boarheaded Trolloc,485465,9,trolloc,male,63,13,2024-02-25T16:21:53.0993802Z,9
rogue,17,15,Boarheaded Trolloc,485464,9,trolloc,male,65,15,2024-02-25T16:20:41.8543983Z,9
rogue,15,15,Boarheaded Trolloc,485463,9,trolloc,male,65,17,2024-02-25T16:18:38.9545555Z,9
rogue,18,17,Boarheaded Trolloc,485462,10,trolloc,male,69,14,2024-02-25T16:16:54.0769015Z,10
rogue,17,17,Boarheaded Trolloc,485461,9,trolloc,male,65,13,2024-02-25T16:15:06.7638561Z,9
rogue,19,17,Boarheaded Trolloc,485460,8,trolloc,male,68,14,2024-02-25T16:13:19.0423888Z,10
rogue,17,14,Boarheaded Trolloc,485459,12,trolloc,male,65,15,2024-02-25T16:11:27.214508Z,7
rogue,18,16,Boarheaded Trolloc,485458,9,trolloc,male,68,16,2024-02-25T16:09:41.9443471Z,9
rogue,15,16,Boarheaded Trolloc,485457,12,trolloc,male,68,16,2024-02-25T16:07:56.6754055Z,9
rogue,16,16,Boarheaded Trolloc,485456,9,trolloc,male,65,16,2024-02-25T16:06:15.5239997Z,8
rogue,18,13,Boarheaded Trolloc,485455,11,trolloc,male,66,13,2024-02-25T16:04:54.0320127Z,11
rogue,16,16,Boarheaded Trolloc,485454,11,trolloc,male,68,16,2024-02-25T16:03:12.8242145Z,9
rogue,18,17,Boarheaded Trolloc,485453,10,trolloc,male,66,13,2024-02-25T16:01:11.3324324Z,8
rogue,14,14,Boarheaded Trolloc,485452,10,trolloc,male,66,18,2024-02-25T15:59:45.5615249Z,10
rogue,17,16,Boarheaded Trolloc,485451,8,trolloc,male,65,16,2024-02-25T15:58:02.334336Z,8
rogue,19,17,Boarheaded Trolloc,485450,6,trolloc,male,69,16,2024-02-25T15:56:18.7302955Z,11
rogue,18,16,Boarheaded Trolloc,485449,9,trolloc,male,68,17,2024-02-25T15:54:39.5985899Z,8
rogue,18,14,Boarheaded Trolloc,485448,10,trolloc,male,66,16,2024-02-25T15:53:03.1178407Z,8
rogue,17,17,Boarheaded Trolloc,485447,9,trolloc,male,65,16,2024-02-25T15:51:55.3639184Z,6
rogue,16,17,Boarheaded Trolloc,485446,11,trolloc,male,67,18,2024-02-25T15:50:36.0430873Z,5
rogue,18,11,Boarheaded Trolloc,485445,10,trolloc,male,66,18,2024-02-25T15:48:59.647435Z,9
rogue,17,16,Boarheaded Trolloc,485444,7,trolloc,male,66,17,2024-02-25T15:47:10.6738313Z,9
rogue,17,17,Boarheaded Trolloc,485443,9,trolloc,male,66,17,2024-02-25T15:45:10.2501533Z,6
rogue,16,16,Boarheaded Trolloc,485442,9,trolloc,male,67,16,2024-02-25T15:43:15.5485834Z,10
rogue,18,17,Boarheaded Trolloc,485441,10,trolloc,male,65,14,2024-02-25T15:41:51.5674493Z,6
rogue,18,16,Boarheaded Trolloc,485440,7,trolloc,male,65,16,2024-02-25T15:40:21.2657403Z,8
rogue,18,16,Boarheaded Trolloc,485439,9,trolloc,male,65,17,2024-02-25T15:38:30.8734237Z,5
rogue,18,18,Boarheaded Trolloc,485438,10,trolloc,male,70,17,2024-02-25T15:36:33.7184488Z,7
rogue,15,13,Boarheaded Trolloc,485437,8,trolloc,male,56,14,2024-02-25T15:35:00.0647682Z,6
rogue,16,18,Boarheaded Trolloc,485436,9,trolloc,male,66,17,2024-02-25T15:32:36.5695076Z,6
rogue,18,17,Boarheaded Trolloc,485435,9,trolloc,male,66,14,2024-02-25T15:30:41.6294398Z,8
rogue,17,16,Boarheaded Trolloc,485434,10,trolloc,male,65,16,2024-02-25T15:29:08.0687835Z,6
rogue,16,19,Boarheaded Trolloc,485433,9,trolloc,male,67,18,2024-02-25T15:27:59.2547137Z,5
rogue,17,18,Boarheaded Trolloc,485432,12,trolloc,male,71,16,2024-02-25T15:26:03.2896537Z,8
rogue,18,13,Boarheaded Trolloc,485431,7,trolloc,male,65,18,2024-02-25T15:24:48.3809715Z,9
rogue,17,16,Boarheaded Trolloc,485430,9,trolloc,male,65,14,2024-02-25T15:23:23.179942Z,9
rogue,14,17,Boarheaded Trolloc,485429,10,trolloc,male,66,16,2024-02-25T15:21:56.7551479Z,9
rogue,17,16,Boarheaded Trolloc,485428,10,trolloc,male,66,15,2024-02-25T15:20:15.3598805Z,8
rogue,18,18,Boarheaded Trolloc,485427,6,trolloc,male,68,18,2024-02-25T15:18:41.7970436Z,8
rogue,19,18,Boarheaded Trolloc,485426,8,trolloc,male,67,16,2024-02-25T15:16:55.7011497Z,6
rogue,16,16,Boarheaded Trolloc,485425,9,trolloc,male,65,15,2024-02-25T15:15:10.8431501Z,9
rogue,18,17,Boarheaded Trolloc,485424,7,trolloc,male,66,15,2024-02-25T15:13:30.6449823Z,9
rogue,17,16,Boarheaded Trolloc,485423,10,trolloc,male,67,16,2024-02-25T15:12:04.4601375Z,8
rogue,13,17,Boarheaded Trolloc,485422,9,trolloc,male,65,17,2024-02-25T15:10:09.4420238Z,9
rogue,16,18,Boarheaded Trolloc,485421,7,trolloc,male,67,18,2024-02-25T15:08:47.0454201Z,8
rogue,17,17,Boarheaded Trolloc,485420,10,trolloc,male,68,17,2024-02-25T15:07:03.8268577Z,7
rogue,15,17,Boarheaded Trolloc,485417,8,trolloc,male,66,17,2024-02-25T15:05:15.2825303Z,9
rogue,17,14,Boarheaded Trolloc,485415,7,trolloc,male,66,18,2024-02-25T15:03:36.1497172Z,10
rogue,14,16,Boarheaded Trolloc,485413,6,trolloc,male,57,16,2024-02-25T15:01:41.0603316Z,5
rogue,18,13,Boarheaded Trolloc,485410,11,trolloc,male,65,17,2024-02-25T15:00:01.1068739Z,6
rogue,18,14,Boarheaded Trolloc,485407,7,trolloc,male,61,13,2024-02-25T14:58:15.860546Z,9
rogue,15,17,Boarheaded Trolloc,485405,9,trolloc,male,67,18,2024-02-25T14:56:31.4053318Z,8
rogue,17,16,Boarheaded Trolloc,485403,4,trolloc,male,59,15,2024-02-25T14:54:47.7479352Z,7
rogue,15,17,Boarheaded Trolloc,485400,7,trolloc,male,65,18,2024-02-25T14:53:07.4054378Z,8
rogue,18,17,Boarheaded Trolloc,485398,10,trolloc,male,67,16,2024-02-25T14:51:20.4997028Z,6
rogue,15,13,Boarheaded Trolloc,485396,9,trolloc,male,58,14,2024-02-25T14:50:01.0307964Z,7
rogue,16,16,Boarheaded Trolloc,485394,8,trolloc,male,67,16,2024-02-25T14:48:46.1299543Z,11
rogue,16,14,Boarheaded Trolloc,485392,8,trolloc,male,65,18,2024-02-25T14:47:10.9503527Z,9
rogue,18,18,Boarheaded Trolloc,485390,8,trolloc,male,65,13,2024-02-25T14:45:26.1984418Z,8
rogue,17,16,Boarheaded Trolloc,485388,10,trolloc,male,65,16,2024-02-25T14:44:08.3633849Z,6
rogue,17,15,Boarheaded Trolloc,485386,12,trolloc,male,65,14,2024-02-25T14:42:41.1860348Z,7
rogue,18,16,Boarheaded Trolloc,485384,9,trolloc,male,67,17,2024-02-25T14:41:16.2141422Z,7
rogue,18,17,Boarheaded Trolloc,485381,8,trolloc,male,65,16,2024-02-25T14:39:17.5833635Z,6
rogue,18,14,Boarheaded Trolloc,485379,10,trolloc,male,65,14,2024-02-25T14:37:45.1313638Z,9
rogue,19,16,Boarheaded Trolloc,485377,9,trolloc,male,68,17,2024-02-25T14:36:23.8723772Z,7
rogue,15,17,Boarheaded Trolloc,485375,11,trolloc,male,66,17,2024-02-25T14:34:48.0134512Z,6
rogue,17,19,Boarheaded Trolloc,485372,10,trolloc,male,70,15,2024-02-25T14:32:58.6577609Z,9
rogue,14,17,Boarheaded Trolloc,485370,10,trolloc,male,65,16,2024-02-25T14:31:29.36072Z,8
rogue,17,18,Boarheaded Trolloc,485368,10,trolloc,male,70,16,2024-02-25T14:30:05.0033618Z,9
rogue,17,15,Boarheaded Trolloc,485366,10,trolloc,male,67,17,2024-02-25T14:28:40.2289816Z,8
rogue,15,19,Boarheaded Trolloc,485363,12,trolloc,male,65,13,2024-02-25T14:26:47.9663253Z,6
rogue,18,14,Boarheaded Trolloc,485361,8,trolloc,male,66,18,2024-02-25T14:25:19.8967658Z,8
rogue,17,18,Boarheaded Trolloc,485359,6,trolloc,male,65,16,2024-02-25T14:23:48.1387457Z,8
rogue,18,16,Boarheaded Trolloc,485357,9,trolloc,male,69,16,2024-02-25T14:22:11.4763289Z,10
rogue,19,17,Boarheaded Trolloc,485354,10,trolloc,male,66,13,2024-02-25T14:20:15.5676005Z,7
rogue,18,17,Boarheaded Trolloc,485352,9,trolloc,male,69,16,2024-02-25T14:18:39.7250059Z,9
rogue,19,14,Boarheaded Trolloc,485350,9,trolloc,male,66,17,2024-02-25T14:17:13.7029347Z,7
rogue,17,16,Boarheaded Trolloc,485348,10,trolloc,male,70,18,2024-02-25T14:15:48.9061995Z,9
rogue,15,19,Boarheaded Trolloc,485345,12,trolloc,male,65,13,2024-02-25T14:13:58.3270188Z,6
rogue,18,18,Boarheaded Trolloc,485343,9,trolloc,male,67,16,2024-02-25T14:12:14.6934074Z,6
rogue,17,16,Boarheaded Trolloc,485341,10,trolloc,male,65,14,2024-02-25T14:10:41.7024842Z,8
rogue,16,17,Boarheaded Trolloc,485338,9,trolloc,male,69,16,2024-02-25T14:08:51.5345927Z,11
rogue,18,16,Boarheaded Trolloc,485336,9,trolloc,male,65,15,2024-02-25T14:07:22.2344869Z,7
rogue,17,13,Boarheaded Trolloc,485333,8,trolloc,male,58,14,2024-02-25T14:05:43.1045265Z,6
rogue,15,13,Boarheaded Trolloc,485331,8,trolloc,male,62,17,2024-02-25T14:03:47.5896261Z,9
rogue,18,15,Boarheaded Trolloc,485328,10,trolloc,male,65,16,2024-02-25T14:02:14.2007099Z,6
rogue,19,17,Boarheaded Trolloc,485326,7,trolloc,male,65,15,2024-02-25T14:00:39.1748482Z,7
rogue,18,17,Boarheaded Trolloc,485324,6,trolloc,male,66,15,2024-02-25T13:59:08.3567824Z,10
rogue,19,13,Boarheaded Trolloc,485321,10,trolloc,male,65,16,2024-02-25T13:57:36.5092988Z,7
rogue,18,17,Boarheaded Trolloc,485319,8,trolloc,male,66,18,2024-02-25T13:56:00.2265259Z,5
rogue,18,16,Boarheaded Trolloc,485317,10,trolloc,male,67,17,2024-02-25T13:54:20.6935403Z,6
rogue,13,14,Boarheaded Trolloc,485314,8,trolloc,male,55,14,2024-02-25T13:52:35.8844949Z,6
rogue,17,16,Boarheaded Trolloc,485312,9,trolloc,male,69,16,2024-02-25T13:50:55.4903507Z,11
rogue,17,17,Boarheaded Trolloc,485309,11,trolloc,male,69,15,2024-02-25T13:49:20.038914Z,9
rogue,17,17,Boarheaded Trolloc,485307,10,trolloc,male,65,15,2024-02-25T13:47:38.4573946Z,6
rogue,17,19,Boarheaded Trolloc,485304,7,trolloc,male,68,18,2024-02-25T13:45:37.3900148Z,7
rogue,14,16,Boarheaded Trolloc,485302,9,trolloc,male,65,17,2024-02-25T13:44:09.2001833Z,9
rogue,17,19,Boarheaded Trolloc,485299,10,trolloc,male,67,15,2024-02-25T13:42:18.9693886Z,6
rogue,15,17,Boarheaded Trolloc,485297,12,trolloc,male,66,12,2024-02-25T13:40:50.9208721Z,10
rogue,18,15,Boarheaded Trolloc,485294,7,trolloc,male,65,16,2024-02-25T13:39:19.1452353Z,9
rogue,18,15,Boarheaded Trolloc,485292,7,trolloc,male,66,16,2024-02-25T13:37:38.558006Z,10
rogue,16,17,Boarheaded Trolloc,485289,11,trolloc,male,66,14,2024-02-25T13:36:04.3860702Z,8
rogue,19,17,Boarheaded Trolloc,485287,9,trolloc,male,70,17,2024-02-25T13:34:45.1266347Z,8
rogue,18,17,Boarheaded Trolloc,485285,9,trolloc,male,65,15,2024-02-25T13:33:28.1375337Z,6
rogue,15,18,Boarheaded Trolloc,485283,9,trolloc,male,65,17,2024-02-25T13:32:14.5897163Z,6
rogue,17,16,Boarheaded Trolloc,485281,6,trolloc,male,66,17,2024-02-25T13:30:11.6804303Z,10
rogue,17,15,Boarheaded Trolloc,485279,9,trolloc,male,66,18,2024-02-25T13:28:27.8873761Z,7
rogue,16,16,Boarheaded Trolloc,485276,10,trolloc,male,65,17,2024-02-25T13:26:59.8200471Z,6
rogue,17,17,Boarheaded Trolloc,485275,10,trolloc,male,67,14,2024-02-25T13:25:44.0662594Z,9
rogue,14,15,Boarheaded Trolloc,485273,11,trolloc,male,65,15,2024-02-25T13:24:07.3940152Z,10
rogue,19,17,Boarheaded Trolloc,485270,11,trolloc,male,65,14,2024-02-25T13:22:43.6610107Z,4
rogue,16,18,Boarheaded Trolloc,485268,10,trolloc,male,61,11,2024-02-25T13:21:09.6138777Z,6
rogue,18,17,Boarheaded Trolloc,485267,10,trolloc,male,67,14,2024-02-25T13:19:41.5358906Z,8
rogue,14,18,Boarheaded Trolloc,485264,10,trolloc,male,67,16,2024-02-25T13:18:00.7834134Z,9
rogue,17,16,Boarheaded Trolloc,485261,8,trolloc,male,65,17,2024-02-25T13:16:07.7344131Z,7
rogue,19,17,Boarheaded Trolloc,485259,11,trolloc,male,72,16,2024-02-25T13:14:31.0552603Z,9
rogue,18,14,Boarheaded Trolloc,485257,11,trolloc,male,70,19,2024-02-25T13:13:09.5754576Z,8
rogue,17,15,Boarheaded Trolloc,485255,6,trolloc,male,61,19,2024-02-25T13:12:03.1880723Z,4
rogue,18,14,Boarheaded Trolloc,485253,10,trolloc,male,65,16,2024-02-25T13:10:28.1531859Z,7
rogue,19,14,Boarheaded Trolloc,485251,8,trolloc,male,63,14,2024-02-25T13:08:46.1964348Z,8
rogue,13,16,Boarheaded Trolloc,485248,4,trolloc,male,54,17,2024-02-25T13:06:57.8614949Z,4
rogue,19,16,Boarheaded Trolloc,485246,10,trolloc,male,72,16,2024-02-25T13:05:15.2219134Z,11
rogue,18,14,Boarheaded Trolloc,485244,9,trolloc,male,57,11,2024-02-25T13:03:55.762523Z,5
rogue,16,15,Boarheaded Trolloc,485242,9,trolloc,male,62,14,2024-02-25T13:02:21.9631095Z,8
rogue,17,16,Boarheaded Trolloc,485240,7,trolloc,male,66,17,2024-02-25T13:00:30.559927Z,9
rogue,17,16,Boarheaded Trolloc,485237,9,trolloc,male,65,16,2024-02-25T12:58:48.9658656Z,7
rogue,18,15,Boarheaded Trolloc,485235,9,trolloc,male,68,17,2024-02-25T12:57:36.614035Z,9
rogue,18,14,Boarheaded Trolloc,485234,11,trolloc,male,67,14,2024-02-25T12:56:02.6557685Z,10
rogue,17,17,Boarheaded Trolloc,485233,10,trolloc,male,67,17,2024-02-25T12:54:27.6544655Z,6
rogue,17,14,Boarheaded Trolloc,485232,9,trolloc,male,68,17,2024-02-25T12:52:55.2345981Z,11
rogue,17,17,Boarheaded Trolloc,485231,11,trolloc,male,67,12,2024-02-25T12:51:14.1153151Z,10
rogue,19,16,Boarheaded Trolloc,485230,9,trolloc,male,65,13,2024-02-25T12:49:47.6189173Z,8
rogue,19,18,Boarheaded Trolloc,485229,8,trolloc,male,65,15,2024-02-25T12:48:03.0095213Z,5
rogue,14,14,Boarheaded Trolloc,485228,12,trolloc,male,65,17,2024-02-25T12:46:43.5576437Z,8
rogue,18,14,Boarheaded Trolloc,485225,12,trolloc,male,74,19,2024-02-25T12:44:48.0432641Z,11
rogue,19,16,Boarheaded Trolloc,485223,9,trolloc,male,65,15,2024-02-25T12:43:15.5986415Z,6
rogue,15,12,Boarheaded Trolloc,485221,7,trolloc,male,59,17,2024-02-25T12:42:09.7491924Z,8
rogue,18,17,Boarheaded Trolloc,485219,8,trolloc,male,67,13,2024-02-25T12:40:48.8273587Z,11
rogue,18,18,Boarheaded Trolloc,485217,9,trolloc,male,65,14,2024-02-25T12:39:10.9407861Z,6
rogue,17,17,Boarheaded Trolloc,485214,7,trolloc,male,65,16,2024-02-25T12:37:17.0552606Z,8
rogue,17,17,Boarheaded Trolloc,485212,8,trolloc,male,65,19,2024-02-25T12:35:17.4818285Z,4
rogue,16,16,Boarheaded Trolloc,485209,10,trolloc,male,65,15,2024-02-25T12:33:39.554161Z,8
rogue,16,18,Boarheaded Trolloc,485207,11,trolloc,male,69,16,2024-02-25T12:32:20.0963853Z,8
rogue,16,16,Boarheaded Trolloc,485205,8,trolloc,male,66,17,2024-02-25T12:30:33.625291Z,9
rogue,18,15,Boarheaded Trolloc,485202,10,trolloc,male,69,16,2024-02-25T12:28:40.7416347Z,10
rogue,19,18,Boarheaded Trolloc,485200,9,trolloc,male,65,14,2024-02-25T12:27:04.7393706Z,5
rogue,16,16,Boarheaded Trolloc,485198,11,trolloc,male,69,16,2024-02-25T12:25:25.5780889Z,10
rogue,18,18,Boarheaded Trolloc,485196,10,trolloc,male,67,13,2024-02-25T12:24:10.3880878Z,8
rogue,17,17,Boarheaded Trolloc,485193,9,trolloc,male,68,16,2024-02-25T12:22:08.6338357Z,9
rogue,16,16,Boarheaded Trolloc,485191,9,trolloc,male,66,17,2024-02-25T12:20:38.8442204Z,8
rogue,17,17,Boarheaded Trolloc,485189,12,trolloc,male,74,17,2024-02-25T12:18:59.7567573Z,11
rogue,19,16,Boarheaded Trolloc,485186,7,trolloc,male,67,17,2024-02-25T12:17:32.5000465Z,8
rogue,17,16,Boarheaded Trolloc,485184,9,trolloc,male,67,16,2024-02-25T12:16:23.0734647Z,9
rogue,18,13,Boarheaded Trolloc,485182,11,trolloc,male,65,17,2024-02-25T12:14:47.837585Z,6
rogue,16,18,Boarheaded Trolloc,485180,5,trolloc,male,65,17,2024-02-25T12:13:02.8940494Z,9
rogue,17,16,Boarheaded Trolloc,485178,9,trolloc,male,66,17,2024-02-25T12:12:00.2934166Z,7
rogue,18,18,Boarheaded Trolloc,485176,9,trolloc,male,68,15,2024-02-25T12:10:38.7889344Z,8
rogue,17,17,Boarheaded Trolloc,485173,8,trolloc,male,65,14,2024-02-25T12:08:39.1893479Z,9
rogue,16,18,Boarheaded Trolloc,485171,7,trolloc,male,66,18,2024-02-25T12:06:59.6375679Z,7
rogue,18,17,Boarheaded Trolloc,485169,5,trolloc,male,65,16,2024-02-25T12:05:26.2520262Z,9
rogue,17,13,Boarheaded Trolloc,485167,7,trolloc,male,59,13,2024-02-25T12:03:53.8867836Z,9
rogue,14,13,Boarheaded Trolloc,485164,7,trolloc,male,58,14,2024-02-25T12:02:21.1527419Z,10
rogue,18,16,Boarheaded Trolloc,485162,8,trolloc,male,68,17,2024-02-25T12:00:37.4743384Z,9
rogue,16,19,Boarheaded Trolloc,485160,8,trolloc,male,68,17,2024-02-25T11:59:10.6484441Z,8
rogue,17,16,Boarheaded Trolloc,485158,11,trolloc,male,68,15,2024-02-25T11:57:33.1543846Z,9
rogue,19,16,Boarheaded Trolloc,485155,9,trolloc,male,65,15,2024-02-25T11:56:23.1521211Z,6
rogue,16,15,Boarheaded Trolloc,485153,10,trolloc,male,65,17,2024-02-25T11:54:58.3247432Z,7
rogue,16,17,Boarheaded Trolloc,485151,10,trolloc,male,69,17,2024-02-25T11:53:33.5293401Z,9
rogue,15,17,Boarheaded Trolloc,485149,9,trolloc,male,65,15,2024-02-25T11:51:35.1501263Z,9
rogue,17,16,Boarheaded Trolloc,485146,10,trolloc,male,65,15,2024-02-25T11:49:47.844642Z,7
rogue,18,16,Boarheaded Trolloc,485144,8,trolloc,male,65,14,2024-02-25T11:48:13.6250675Z,9
rogue,17,16,Boarheaded Trolloc,485142,10,trolloc,male,66,15,2024-02-25T11:46:49.6789635Z,8
rogue,16,16,Boarheaded Trolloc,485140,9,trolloc,male,65,16,2024-02-25T11:45:17.9130525Z,8
rogue,17,17,Boarheaded Trolloc,485138,10,trolloc,male,68,16,2024-02-25T11:44:00.0883838Z,8
rogue,18,19,Boarheaded Trolloc,485136,7,trolloc,male,65,14,2024-02-25T11:42:29.5552672Z,7
rogue,17,16,Boarheaded Trolloc,485133,12,trolloc,male,68,16,2024-02-25T11:40:51.6719933Z,7
rogue,14,17,Boarheaded Trolloc,485131,9,trolloc,male,61,15,2024-02-25T11:39:23.6043965Z,6
rogue,19,19,Boarheaded Trolloc,485129,9,trolloc,male,72,14,2024-02-25T11:37:54.7242528Z,11
rogue,19,19,Boarheaded Trolloc,485127,6,trolloc,male,66,16,2024-02-25T11:36:41.000952Z,6
rogue,18,16,Boarheaded Trolloc,485124,9,trolloc,male,65,17,2024-02-25T11:34:42.9048603Z,5
rogue,18,16,Boarheaded Trolloc,485122,7,trolloc,male,65,17,2024-02-25T11:33:00.2091893Z,7
rogue,18,19,Boarheaded Trolloc,485119,7,trolloc,male,65,15,2024-02-25T11:31:32.1627541Z,6
rogue,14,17,Boarheaded Trolloc,485117,7,trolloc,male,61,15,2024-02-25T11:29:53.4393927Z,8
rogue,18,16,Boarheaded Trolloc,485114,8,trolloc,male,66,13,2024-02-25T11:27:52.6068163Z,11
rogue,16,16,Boarheaded Trolloc,485112,12,trolloc,male,66,14,2024-02-25T11:26:31.0023488Z,8
rogue,16,18,Boarheaded Trolloc,485110,10,trolloc,male,65,15,2024-02-25T11:24:35.5788369Z,6
rogue,18,19,Boarheaded Trolloc,485107,10,trolloc,male,70,17,2024-02-25T11:22:31.4961478Z,6
rogue,17,17,Boarheaded Trolloc,485105,10,trolloc,male,72,19,2024-02-25T11:21:21.0213247Z,9
rogue,17,18,Boarheaded Trolloc,485103,8,trolloc,male,68,16,2024-02-25T11:19:38.3785982Z,9
rogue,17,16,Boarheaded Trolloc,485101,10,trolloc,male,68,17,2024-02-25T11:17:54.1644023Z,8
rogue,16,14,Boarheaded Trolloc,485098,12,trolloc,male,67,15,2024-02-25T11:16:32.2783151Z,10
rogue,17,13,Boarheaded Trolloc,485096,12,trolloc,male,69,18,2024-02-25T11:15:13.6077309Z,9
rogue,17,18,Boarheaded Trolloc,485094,11,trolloc,male,69,16,2024-02-25T11:13:20.1316959Z,7
rogue,19,14,Boarheaded Trolloc,485092,7,trolloc,male,65,15,2024-02-25T11:12:00.6703596Z,10
rogue,14,17,Boarheaded Trolloc,485090,10,trolloc,male,64,14,2024-02-25T11:10:21.5543612Z,9
rogue,17,14,Boarheaded Trolloc,485087,9,trolloc,male,66,18,2024-02-25T11:08:42.0057128Z,8
rogue,18,14,Boarheaded Trolloc,485085,9,trolloc,male,68,19,2024-02-25T11:07:10.2962188Z,8
rogue,14,17,Boarheaded Trolloc,485083,7,trolloc,male,65,16,2024-02-25T11:05:41.3961869Z,11
rogue,13,16,Boarheaded Trolloc,485081,6,trolloc,male,58,18,2024-02-25T11:04:28.8819524Z,5
rogue,19,18,Boarheaded Trolloc,485078,4,trolloc,male,65,16,2024-02-25T11:02:37.8849495Z,8
rogue,17,17,Boarheaded Trolloc,485076,10,trolloc,male,66,16,2024-02-25T11:01:11.0304159Z,6
rogue,16,14,Boarheaded Trolloc,485074,5,trolloc,male,56,15,2024-02-25T10:59:24.1563105Z,6
rogue,14,16,Boarheaded Trolloc,485071,12,trolloc,male,65,16,2024-02-25T10:57:24.9279534Z,7
rogue,19,18,Boarheaded Trolloc,485069,8,trolloc,male,68,17,2024-02-25T10:55:53.2006492Z,6
rogue,17,19,Boarheaded Trolloc,485067,8,trolloc,male,63,13,2024-02-25T10:54:26.3750795Z,6
rogue,17,17,Boarheaded Trolloc,485064,10,trolloc,male,67,16,2024-02-25T10:53:01.6168282Z,7
rogue,14,17,Boarheaded Trolloc,485062,10,trolloc,male,68,18,2024-02-25T10:51:34.3651711Z,9
rogue,16,15,Boarheaded Trolloc,485060,6,trolloc,male,65,19,2024-02-25T10:50:12.0306447Z,9
rogue,15,15,Boarheaded Trolloc,485058,12,trolloc,male,65,15,2024-02-25T10:48:33.7311119Z,8
rogue,15,14,Boarheaded Trolloc,485056,8,trolloc,male,61,17,2024-02-25T10:46:53.3552253Z,7
rogue,19,15,Boarheaded Trolloc,485054,8,trolloc,male,70,17,2024-02-25T10:45:41.6964542Z,11
rogue,18,17,Boarheaded Trolloc,485052,9,trolloc,male,65,14,2024-02-25T10:44:19.7978153Z,7
rogue,12,14,Boarheaded Trolloc,485050,6,trolloc,male,53,14,2024-02-25T10:42:33.6355032Z,7
rogue,17,18,Boarheaded Trolloc,485048,8,trolloc,male,65,14,2024-02-25T10:41:10.0784313Z,8
rogue,15,16,Boarheaded Trolloc,485046,10,trolloc,male,65,16,2024-02-25T10:39:46.9265872Z,8
rogue,17,19,Boarheaded Trolloc,485044,6,trolloc,male,65,15,2024-02-25T10:38:31.2026278Z,8
rogue,17,14,Boarheaded Trolloc,485041,9,trolloc,male,65,18,2024-02-25T10:36:40.9523419Z,7
rogue,19,15,Boarheaded Trolloc,485039,12,trolloc,male,65,14,2024-02-25T10:35:19.4871022Z,5
rogue,13,17,Boarheaded Trolloc,485036,8,trolloc,male,61,15,2024-02-25T10:33:41.5485306Z,8
rogue,15,14,Boarheaded Trolloc,485034,10,trolloc,male,65,17,2024-02-25T10:32:11.049242Z,9
rogue,16,18,Boarheaded Trolloc,485032,11,trolloc,male,71,17,2024-02-25T10:30:33.1427682Z,9
rogue,15,15,Boarheaded Trolloc,485030,10,trolloc,male,65,17,2024-02-25T10:28:50.3210102Z,8
rogue,17,13,Boarheaded Trolloc,485028,11,trolloc,male,68,17,2024-02-25T10:27:21.0401987Z,10
rogue,18,17,Boarheaded Trolloc,485025,11,trolloc,male,71,16,2024-02-25T10:25:22.8611056Z,9
rogue,18,16,Boarheaded Trolloc,485023,8,trolloc,male,67,17,2024-02-25T10:23:56.6266627Z,8
rogue,18,14,Boarheaded Trolloc,485022,11,trolloc,male,65,15,2024-02-25T10:22:36.7633145Z,7
rogue,18,17,Boarheaded Trolloc,485019,10,trolloc,male,69,18,2024-02-25T10:20:34.295189Z,6
rogue,16,16,Boarheaded Trolloc,485017,9,trolloc,male,66,19,2024-02-25T10:18:41.6811851Z,6
rogue,12,16,Boarheaded Trolloc,485014,8,trolloc,male,60,16,2024-02-25T10:17:04.1673316Z,8
rogue,19,16,Boarheaded Trolloc,485012,9,trolloc,male,67,15,2024-02-25T10:15:09.9015153Z,8
rogue,18,17,Boarheaded Trolloc,485010,10,trolloc,male,70,15,2024-02-25T10:13:39.8627915Z,10
rogue,16,15,Boarheaded Trolloc,485008,10,trolloc,male,66,15,2024-02-25T10:12:19.9218358Z,10
rogue,19,12,Boarheaded Trolloc,485006,12,trolloc,male,67,16,2024-02-25T10:10:53.4703702Z,8
rogue,17,18,Boarheaded Trolloc,485004,7,trolloc,male,67,15,2024-02-25T10:09:30.3123626Z,10
rogue,15,17,Boarheaded Trolloc,485001,12,trolloc,male,67,15,2024-02-25T10:07:51.2148718Z,8
rogue,18,19,Boarheaded Trolloc,484999,10,trolloc,male,67,12,2024-02-25T10:05:49.5385804Z,8
rogue,18,16,Boarheaded Trolloc,484996,10,trolloc,male,66,13,2024-02-25T10:04:01.008283Z,9
rogue,18,15,Boarheaded Trolloc,484994,11,trolloc,male,68,17,2024-02-25T10:02:25.9588802Z,7
rogue,19,14,Boarheaded Trolloc,484992,10,trolloc,male,68,18,2024-02-25T10:00:40.7077045Z,7
rogue,17,16,Boarheaded Trolloc,484990,8,trolloc,male,66,15,2024-02-25T09:59:13.4599097Z,10
rogue,14,14,Boarheaded Trolloc,484988,7,trolloc,male,64,18,2024-02-25T09:57:30.2505294Z,11
rogue,19,16,Boarheaded Trolloc,484985,7,trolloc,male,68,18,2024-02-25T09:56:07.1021322Z,8
rogue,15,17,Boarheaded Trolloc,484983,11,trolloc,male,66,16,2024-02-25T09:54:41.0695424Z,7
rogue,19,15,Boarheaded Trolloc,484980,10,trolloc,male,69,19,2024-02-25T09:52:39.4272571Z,6
rogue,16,18,Boarheaded Trolloc,484978,12,trolloc,male,68,16,2024-02-25T09:51:05.6194867Z,6
rogue,18,17,Boarheaded Trolloc,484976,11,trolloc,male,67,13,2024-02-25T09:49:43.6952539Z,8
rogue,18,16,Boarheaded Trolloc,484974,7,trolloc,male,67,17,2024-02-25T09:48:06.8193306Z,9
rogue,18,15,Boarheaded Trolloc,484971,8,trolloc,male,65,15,2024-02-25T09:46:22.8775245Z,9
rogue,19,16,Boarheaded Trolloc,484969,6,trolloc,male,67,18,2024-02-25T09:45:05.5707249Z,8
rogue,15,15,Boarheaded Trolloc,484966,9,trolloc,male,65,17,2024-02-25T09:43:19.5288325Z,9
rogue,18,15,Boarheaded Trolloc,484964,11,trolloc,male,68,16,2024-02-25T09:41:50.6186592Z,8
rogue,18,16,Boarheaded Trolloc,484962,9,trolloc,male,67,17,2024-02-25T09:39:55.1026928Z,7
rogue,16,18,Boarheaded Trolloc,484959,11,trolloc,male,71,17,2024-02-25T09:38:34.3924653Z,9
rogue,18,14,Boarheaded Trolloc,484958,9,trolloc,male,65,15,2024-02-25T09:37:28.447916Z,9
rogue,17,16,Boarheaded Trolloc,484956,11,trolloc,male,66,14,2024-02-25T09:35:48.5149657Z,8
rogue,15,16,Boarheaded Trolloc,484953,12,trolloc,male,65,16,2024-02-25T09:33:49.3090956Z,6
rogue,15,18,Boarheaded Trolloc,484950,9,trolloc,male,65,14,2024-02-25T09:32:05.276843Z,9
rogue,17,19,Boarheaded Trolloc,484948,12,trolloc,male,68,13,2024-02-25T09:30:54.855725Z,7
rogue,13,18,Boarheaded Trolloc,484946,8,trolloc,male,64,18,2024-02-25T09:29:21.0276471Z,7
rogue,15,15,Boarheaded Trolloc,484945,10,trolloc,male,66,16,2024-02-25T09:28:14.2749536Z,10
rogue,13,17,Boarheaded Trolloc,484943,11,trolloc,male,59,13,2024-02-25T09:26:40.0688838Z,5
rogue,17,15,Boarheaded Trolloc,484940,8,trolloc,male,68,18,2024-02-25T09:25:04.2317867Z,10
rogue,17,14,Boarheaded Trolloc,484938,9,trolloc,male,65,17,2024-02-25T09:23:19.5983871Z,8
rogue,18,17,Boarheaded Trolloc,484936,11,trolloc,male,66,13,2024-02-25T09:21:57.4537099Z,7
rogue,15,18,Boarheaded Trolloc,484934,9,trolloc,male,66,18,2024-02-25T09:20:48.2420366Z,6
rogue,18,13,Boarheaded Trolloc,484932,8,trolloc,male,66,16,2024-02-25T09:19:17.3693773Z,11
rogue,15,17,Boarheaded Trolloc,484930,5,trolloc,male,54,11,2024-02-25T09:18:01.5272617Z,6
rogue,17,17,Boarheaded Trolloc,484928,9,trolloc,male,68,15,2024-02-25T09:16:29.8030806Z,10
rogue,13,15,Boarheaded Trolloc,484926,6,trolloc,male,55,13,2024-02-25T09:15:01.7276657Z,8
rogue,18,13,Boarheaded Trolloc,484924,6,trolloc,male,56,13,2024-02-25T09:13:37.3403362Z,6
rogue,18,13,Boarheaded Trolloc,484921,11,trolloc,male,69,18,2024-02-25T09:12:01.0889499Z,9
rogue,19,15,Boarheaded Trolloc,484919,9,trolloc,male,68,15,2024-02-25T09:10:15.6651846Z,10
rogue,16,19,Boarheaded Trolloc,484917,11,trolloc,male,68,16,2024-02-25T09:08:35.4589729Z,6
rogue,14,15,Boarheaded Trolloc,484914,7,trolloc,male,57,17,2024-02-25T09:07:10.0412051Z,4
rogue,18,14,Boarheaded Trolloc,484911,9,trolloc,male,66,17,2024-02-25T09:03:48.5124745Z,8
