[
  {
    "class": "channeler",
    "constitution": 13,
    "dexterity": 11,
    "homeland": "Amadicia",
    "id": 104718,
    "intelligence": 16,
    "race": "human",
    "sex": "female",
    "statSum": 70,
    "strength": 14,
    "submitted": "2023-11-25T13:40:02.1516117Z",
    "willpower": 16
  }
]