[
  {
    "class": "channeler",
    "constitution": 10,
    "dexterity": 15,
    "homeland": "Ghealdan",
    "id": 139440,
    "intelligence": 17,
    "race": "human",
    "sex": "male",
    "statSum": 71,
    "strength": 11,
    "submitted": "2023-12-25T14:13:16.9639018Z",
    "willpower": 18
  },
  {
    "class": "channeler",
    "constitution": 12,
    "dexterity": 13,
    "homeland": "Ghealdan",
    "id": 139437,
    "intelligence": 18,
    "race": "human",
    "sex": "male",
    "statSum": 73,
    "strength": 11,
    "submitted": "2023-12-25T14:11:23.4773757Z",
    "willpower": 19
  },
  {
    "class": "channeler",
    "constitution": 13,
    "dexterity": 12,
    "homeland": "Ghealdan",
    "id": 139435,
    "intelligence": 17,
    "race": "human",
    "sex": "male",
    "statSum": 71,
    "strength": 10,
    "submitted": "2023-12-25T14:09:33.2848244Z",
    "willpower": 19
  },
  {
    "class": "channeler",
    "constitution": 10,
    "dexterity": 12,
    "homeland": "Ghealdan",
    "id": 139433,
    "intelligence": 17,
    "race": "human",
    "sex": "male",
    "statSum": 70,
    "strength": 12,
    "submitted": "2023-12-25T14:07:56.4457735Z",
    "willpower": 19
  },
  {
    "class": "channeler",
    "constitution": 10,
    "dexterity": 14,
    "homeland": "Ghealdan",
    "id": 139431,
    "intelligence": 19,
    "race": "human",
    "sex": "male",
    "statSum": 72,
    "strength": 11,
    "submitted": "2023-12-25T14:06:25.0176363Z",
    "willpower": 18
  },
  {
    "class": "channeler",
    "constitution": 11,
    "dexterity": 12,
    "homeland": "Ghealdan",
    "id": 139428,
    "intelligence": 18,
    "race": "human",
    "sex": "male",
    "statSum": 73,
    "strength": 14,
    "submitted": "2023-12-25T14:04:27.1714931Z",
    "willpower": 18
  },
  {
    "class": "channeler",
    "constitution": 11,
    "dexterity": 13,
    "homeland": "Ghealdan",
    "id": 139426,
    "intelligence": 17,
    "race": "human",
    "sex": "male",
    "statSum": 73,
    "strength": 13,
    "submitted": "2023-12-25T14:02:47.1917191Z",
    "willpower": 19
  },
  {
    "class": "channeler",
    "constitution": 10,
    "dexterity": 13,
    "homeland": "Ghealdan",
    "id": 139424,
    "intelligence": 17,
    "race": "human",
    "sex": "male",
    "statSum": 71,
    "strength": 14,
    "submitted": "2023-12-25T14:01:10.5726339Z",
    "willpower": 17
  },
  {
    "class": "channeler",
    "constitution": 10,
    "dexterity": 15,
    "homeland": "Ghealdan",
    "id": 139421,
    "intelligence": 16,
    "race": "human",
    "sex": "male",
    "statSum": 71,
    "strength": 11,
    "submitted": "2023-12-25T13:59:16.257715Z",
    "willpower": 19
  },
  {
    "class": "channeler",
    "constitution": 14,
    "dexterity": 13,
    "homeland": "Ghealdan",
    "id": 139418,
    "intelligence": 18,
    "race": "human",
    "sex": "male",
    "statSum": 77,
    "strength": 14,
    "submitted": "2023-12-25T13:57:31.9779557Z",
    "willpower": 18
  },
  {
    "class": "channeler",
    "constitution": 11,
    "dexterity": 15,
    "homeland": "Ghealdan",
    "id": 139416,
    "intelligence": 17,
    "race": "human",
    "sex": "male",
    "statSum": 71,
    "strength": 11,
    "submitted": "2023-12-25T13:55:04.6856057Z",
    "willpower": 17
  },
  {
    "class": "channeler",
    "constitution": 11,
    "dexterity": 15,
    "homeland": "Ghealdan",
    "id": 139413,
    "intelligence": 13,
    "race": "human",
    "sex": "male",
    "statSum": 70,
    "strength": 12,
    "submitted": "2023-12-25T13:52:52.0052573Z",
    "willpower": 19
  },
  {
    "class": "channeler",
    "constitution": 13,
    "dexterity": 16,
    "homeland": "Ghealdan",
    "id": 139411,
    "intelligence": 17,
    "race": "human",
    "sex": "male",
    "statSum": 72,
    "strength": 11,
    "submitted": "2023-12-25T13:50:36.0345806Z",
    "willpower": 15
  },
  {
    "class": "channeler",
    "constitution": 11,
    "dexterity": 13,
    "homeland": "Ghealdan",
    "id": 139409,
    "intelligence": 19,
    "race": "human",
    "sex": "male",
    "statSum": 74,
    "strength": 14,
    "submitted": "2023-12-25T13:48:37.9637305Z",
    "willpower": 17
  },
  {
    "class": "channeler",
    "constitution": 11,
    "dexterity": 12,
    "homeland": "Ghealdan",
    "id": 139405,
    "intelligence": 19,
    "race": "human",
    "sex": "male",
    "statSum": 70,
    "strength": 11,
    "submitted": "2023-12-25T13:46:13.7912522Z",
    "willpower": 17
  },
  {
    "class": "channeler",
    "constitution": 13,
    "dexterity": 15,
    "homeland": "Ghealdan",
    "id": 139402,
    "intelligence": 18,
    "race": "human",
    "sex": "male",
    "statSum": 74,
    "strength": 13,
    "submitted": "2023-12-25T13:43:57.6522882Z",
    "willpower": 15
  },
  {
    "class": "channeler",
    "constitution": 10,
    "dexterity": 14,
    "homeland": "Ghealdan",
    "id": 139399,
    "intelligence": 19,
    "race": "human",
    "sex": "male",
    "statSum": 71,
    "strength": 11,
    "submitted": "2023-12-25T13:41:46.9821643Z",
    "willpower": 17
  },
  {
    "class": "channeler",
    "constitution": 12,
    "dexterity": 14,
    "homeland": "Ghealdan",
    "id": 139397,
    "intelligence": 18,
    "race": "human",
    "sex": "male",
    "statSum": 74,
    "strength": 11,
    "submitted": "2023-12-25T13:40:09.1015757Z",
    "willpower": 19
  },
  {
    "class": "channeler",
    "constitution": 13,
    "dexterity": 12,
    "homeland": "Ghealdan",
    "id": 139394,
    "intelligence": 19,
    "race": "human",
    "sex": "male",
    "statSum": 73,
    "strength": 12,
    "submitted": "2023-12-25T13:38:41.833865Z",
    "willpower": 17
  },
  {
    "class": "channeler",
    "constitution": 13,
    "dexterity": 15,
    "homeland": "Ghealdan",
    "id": 139392,
    "intelligence": 19,
    "race": "human",
    "sex": "male",
    "statSum": 77,
    "strength": 12,
    "submitted": "2023-12-25T13:36:30.6113677Z",
    "willpower": 18
  },
  {
    "class": "channeler",
    "constitution": 13,
    "dexterity": 12,
    "homeland": "Ghealdan",
    "id": 139389,
    "intelligence": 14,
    "race": "human",
    "sex": "male",
    "statSum": 71,
    "strength": 14,
    "submitted": "2023-12-25T13:34:32.8025565Z",
    "willpower": 18
  },
  {
    "class": "channeler",
    "constitution": 10,
    "dexterity": 12,
    "homeland": "Ghealdan",
    "id": 139388,
    "intelligence": 17,
    "race": "human",
    "sex": "male",
    "statSum": 71,
    "strength": 14,
    "submitted": "2023-12-25T13:32:34.0233868Z",
    "willpower": 18
  },
  {
    "class": "channeler",
    "constitution": 13,
    "dexterity": 16,
    "homeland": "Ghealdan",
    "id": 139386,
    "intelligence": 19,
    "race": "human",
    "sex": "male",
    "statSum": 78,
    "strength": 14,
    "submitted": "2023-12-25T13:30:46.1097921Z",
    "willpower": 16
  },
  {
    "class": "channeler",
    "constitution": 14,
    "dexterity": 13,
    "homeland": "Ghealdan",
    "id": 139382,
    "intelligence": 17,
    "race": "human",
    "sex": "male",
    "statSum": 77,
    "strength": 14,
    "submitted": "2023-12-25T13:28:49.1411688Z",
    "willpower": 19
  },
  {
    "class": "channeler",
    "constitution": 10,
    "dexterity": 12,
    "homeland": "Ghealdan",
    "id": 139380,
    "intelligence": 19,
    "race": "human",
    "sex": "male",
    "statSum": 70,
    "strength": 10,
    "submitted": "2023-12-25T13:27:24.7618755Z",
    "willpower": 19
  },
  {
    "class": "channeler",
    "constitution": 10,
    "dexterity": 16,
    "homeland": "Ghealdan",
    "id": 139377,
    "intelligence": 17,
    "race": "human",
    "sex": "male",
    "statSum": 70,
    "strength": 10,
    "submitted": "2023-12-25T13:25:49.3329628Z",
    "willpower": 17
  },
  {
    "class": "channeler",
    "constitution": 9,
    "dexterity": 12,
    "homeland": "Ghealdan",
    "id": 139375,
    "intelligence": 19,
    "race": "human",
    "sex": "male",
    "statSum": 70,
    "strength": 13,
    "submitted": "2023-12-25T13:24:02.8371257Z",
    "willpower": 17
  },
  {
    "class": "channeler",
    "constitution": 11,
    "dexterity": 12,
    "homeland": "Ghealdan",
    "id": 139373,
    "intelligence": 17,
    "race": "human",
    "sex": "male",
    "statSum": 70,
    "strength": 11,
    "submitted": "2023-12-25T13:22:29.4297883Z",
    "willpower": 19
  },
  {
    "class": "channeler",
    "constitution": 13,
    "dexterity": 14,
    "homeland": "Ghealdan",
    "id": 139369,
    "intelligence": 18,
    "race": "human",
    "sex": "male",
    "statSum": 70,
    "strength": 12,
    "submitted": "2023-12-25T13:20:36.2152346Z",
    "willpower": 13
  },
  {
    "class": "channeler",
    "constitution": 13,
    "dexterity": 12,
    "homeland": "Ghealdan",
    "id": 139367,
    "intelligence": 19,
    "race": "human",
    "sex": "male",
    "statSum": 73,
    "strength": 13,
    "submitted": "2023-12-25T13:18:41.1327318Z",
    "willpower": 16
  },
  {
    "class": "channeler",
    "constitution": 9,
    "dexterity": 12,
    "homeland": "Ghealdan",
    "id": 139364,
    "intelligence": 19,
    "race": "human",
    "sex": "male",
    "statSum": 70,
    "strength": 11,
    "submitted": "2023-12-25T13:17:03.3916166Z",
    "willpower": 19
  },
  {
    "class": "channeler",
    "constitution": 9,
    "dexterity": 14,
    "homeland": "Ghealdan",
    "id": 139362,
    "intelligence": 19,
    "race": "human",
    "sex": "male",
    "statSum": 73,
    "strength": 13,
    "submitted": "2023-12-25T13:15:15.073321Z",
    "willpower": 18
  },
  {
    "class": "channeler",
    "constitution": 12,
    "dexterity": 12,
    "homeland": "Ghealdan",
    "id": 139360,
    "intelligence": 17,
    "race": "human",
    "sex": "male",
    "statSum": 71,
    "strength": 12,
    "submitted": "2023-12-25T13:13:51.623316Z",
    "willpower": 18
  },
  {
    "class": "channeler",
    "constitution": 13,
    "dexterity": 12,
    "homeland": "Ghealdan",
    "id": 139358,
    "intelligence": 18,
    "race": "human",
    "sex": "male",
    "statSum": 71,
    "strength": 11,
    "submitted": "2023-12-25T13:12:03.824921Z",
    "willpower": 17
  },
  {
    "class": "channeler",
    "constitution": 11,
    "dexterity": 12,
    "homeland": "Ghealdan",
    "id": 139356,
    "intelligence": 17,
    "race": "human",
    "sex": "male",
    "statSum": 71,
    "strength": 14,
    "submitted": "2023-12-25T13:10:44.0825268Z",
    "willpower": 17
  },
  {
    "class": "channeler",
    "constitution": 10,
    "dexterity": 15,
    "homeland": "Ghealdan",
    "id": 139353,
    "intelligence": 18,
    "race": "human",
    "sex": "male",
    "statSum": 71,
    "strength": 11,
    "submitted": "2023-12-25T13:08:54.727084Z",
    "willpower": 17
  },
  {
    "class": "channeler",
    "constitution": 14,
    "dexterity": 12,
    "homeland": "Ghealdan",
    "id": 139350,
    "intelligence": 17,
    "race": "human",
    "sex": "male",
    "statSum": 71,
    "strength": 11,
    "submitted": "2023-12-25T13:07:09.4651438Z",
    "willpower": 17
  },
  {
    "class": "channeler",
    "constitution": 9,
    "dexterity": 14,
    "homeland": "Ghealdan",
    "id": 139348,
    "intelligence": 17,
    "race": "human",
    "sex": "male",
    "statSum": 71,
    "strength": 14,
    "submitted": "2023-12-25T13:05:11.3111956Z",
    "willpower": 17
  },
  {
    "class": "channeler",
    "constitution": 10,
    "dexterity": 15,
    "homeland": "Ghealdan",
    "id": 139346,
    "intelligence": 18,
    "race": "human",
    "sex": "male",
    "statSum": 72,
    "strength": 11,
    "submitted": "2023-12-25T13:03:35.4830578Z",
    "willpower": 18
  },
  {
    "class": "channeler",
    "constitution": 10,
    "dexterity": 13,
    "homeland": "Ghealdan",
    "id": 139343,
    "intelligence": 17,
    "race": "human",
    "sex": "male",
    "statSum": 70,
    "strength": 12,
    "submitted": "2023-12-25T13:01:43.668415Z",
    "willpower": 18
  },
  {
    "class": "channeler",
    "constitution": 13,
    "dexterity": 12,
    "homeland": "Ghealdan",
    "id": 139340,
    "intelligence": 18,
    "race": "human",
    "sex": "male",
    "statSum": 71,
    "strength": 13,
    "submitted": "2023-12-25T13:00:00.8553598Z",
    "willpower": 15
  },
  {
    "class": "channeler",
    "constitution": 11,
    "dexterity": 15,
    "homeland": "Ghealdan",
    "id": 139338,
    "intelligence": 17,
    "race": "human",
    "sex": "male",
    "statSum": 70,
    "strength": 11,
    "submitted": "2023-12-25T12:58:03.4827854Z",
    "willpower": 16
  },
  {
    "class": "channeler",
    "constitution": 10,
    "dexterity": 11,
    "homeland": "Ghealdan",
    "id": 139336,
    "intelligence": 19,
    "race": "human",
    "sex": "male",
    "statSum": 73,
    "strength": 14,
    "submitted": "2023-12-25T12:56:33.527195Z",
    "willpower": 19
  },
  {
    "class": "channeler",
    "constitution": 10,
    "dexterity": 14,
    "homeland": "Ghealdan",
    "id": 139333,
    "intelligence": 19,
    "race": "human",
    "sex": "male",
    "statSum": 70,
    "strength": 9,
    "submitted": "2023-12-25T12:54:04.4915889Z",
    "willpower": 18
  },
  {
    "class": "channeler",
    "constitution": 11,
    "dexterity": 14,
    "homeland": "Ghealdan",
    "id": 139331,
    "intelligence": 17,
    "race": "human",
    "sex": "male",
    "statSum": 70,
    "strength": 11,
    "submitted": "2023-12-25T12:52:48.0104763Z",
    "willpower": 17
  },
  {
    "class": "channeler",
    "constitution": 10,
    "dexterity": 12,
    "homeland": "Ghealdan",
    "id": 139327,
    "intelligence": 19,
    "race": "human",
    "sex": "male",
    "statSum": 70,
    "strength": 11,
    "submitted": "2023-12-25T12:50:34.5206036Z",
    "willpower": 18
  },
  {
    "class": "channeler",
    "constitution": 10,
    "dexterity": 14,
    "homeland": "Ghealdan",
    "id": 139325,
    "intelligence": 17,
    "race": "human",
    "sex": "male",
    "statSum": 70,
    "strength": 13,
    "submitted": "2023-12-25T12:48:39.0780305Z",
    "willpower": 16
  },
  {
    "class": "channeler",
    "constitution": 10,
    "dexterity": 11,
    "homeland": "Ghealdan",
    "id": 139322,
    "intelligence": 19,
    "race": "human",
    "sex": "male",
    "statSum": 70,
    "strength": 11,
    "submitted": "2023-12-25T12:46:46.3057321Z",
    "willpower": 19
  },
  {
    "class": "channeler",
    "constitution": 13,
    "dexterity": 15,
    "homeland": "Ghealdan",
    "id": 139320,
    "intelligence": 18,
    "race": "human",
    "sex": "male",
    "statSum": 75,
    "strength": 11,
    "submitted": "2023-12-25T12:45:07.2535642Z",
    "willpower": 18
  },
  {
    "class": "channeler",
    "constitution": 10,
    "dexterity": 12,
    "homeland": "Ghealdan",
    "id": 139317,
    "intelligence": 17,
    "race": "human",
    "sex": "male",
    "statSum": 70,
    "strength": 12,
    "submitted": "2023-12-25T12:43:16.0701886Z",
    "willpower": 19
  },
  {
    "class": "channeler",
    "constitution": 10,
    "dexterity": 13,
    "homeland": "Ghealdan",
    "id": 139314,
    "intelligence": 19,
    "race": "human",
    "sex": "male",
    "statSum": 70,
    "strength": 11,
    "submitted": "2023-12-25T12:41:34.8967723Z",
    "willpower": 17
  },
  {
    "class": "channeler",
    "constitution": 9,
    "dexterity": 12,
    "homeland": "Ghealdan",
    "id": 139313,
    "intelligence": 17,
    "race": "human",
    "sex": "male",
    "statSum": 70,
    "strength": 13,
    "submitted": "2023-12-25T12:39:59.636351Z",
    "willpower": 19
  },
  {
    "class": "channeler",
    "constitution": 12,
    "dexterity": 15,
    "homeland": "Ghealdan",
    "id": 139311,
    "intelligence": 17,
    "race": "human",
    "sex": "male",
    "statSum": 73,
    "strength": 11,
    "submitted": "2023-12-25T12:38:03.2907923Z",
    "willpower": 18
  },
  {
    "class": "channeler",
    "constitution": 12,
    "dexterity": 12,
    "homeland": "Ghealdan",
    "id": 139308,
    "intelligence": 19,
    "race": "human",
    "sex": "male",
    "statSum": 72,
    "strength": 11,
    "submitted": "2023-12-25T12:36:06.0004008Z",
    "willpower": 18
  },
  {
    "class": "channeler",
    "constitution": 9,
    "dexterity": 13,
    "homeland": "Ghealdan",
    "id": 139306,
    "intelligence": 17,
    "race": "human",
    "sex": "male",
    "statSum": 71,
    "strength": 13,
    "submitted": "2023-12-25T12:34:32.3543187Z",
    "willpower": 19
  },
  {
    "class": "channeler",
    "constitution": 12,
    "dexterity": 14,
    "homeland": "Ghealdan",
    "id": 139303,
    "intelligence": 17,
    "race": "human",
    "sex": "male",
    "statSum": 73,
    "strength": 11,
    "submitted": "2023-12-25T12:32:56.9209637Z",
    "willpower": 19
  },
  {
    "class": "channeler",
    "constitution": 11,
    "dexterity": 14,
    "homeland": "Ghealdan",
    "id": 139300,
    "intelligence": 19,
    "race": "human",
    "sex": "male",
    "statSum": 73,
    "strength": 11,
    "submitted": "2023-12-25T12:30:10.2626354Z",
    "willpower": 18
  },
  {
    "class": "channeler",
    "constitution": 13,
    "dexterity": 12,
    "homeland": "Ghealdan",
    "id": 139298,
    "intelligence": 19,
    "race": "human",
    "sex": "male",
    "statSum": 74,
    "strength": 11,
    "submitted": "2023-12-25T12:28:26.8288657Z",
    "willpower": 19
  },
  {
    "class": "channeler",
    "constitution": 11,
    "dexterity": 12,
    "homeland": "Ghealdan",
    "id": 139296,
    "intelligence": 19,
    "race": "human",
    "sex": "male",
    "statSum": 73,
    "strength": 12,
    "submitted": "2023-12-25T12:26:25.9831426Z",
    "willpower": 19
  },
  {
    "class": "channeler",
    "constitution": 10,
    "dexterity": 15,
    "homeland": "Ghealdan",
    "id": 139293,
    "intelligence": 17,
    "race": "human",
    "sex": "male",
    "statSum": 71,
    "strength": 10,
    "submitted": "2023-12-25T12:24:42.5488041Z",
    "willpower": 19
  },
  {
    "class": "channeler",
    "constitution": 12,
    "dexterity": 13,
    "homeland": "Ghealdan",
    "id": 139290,
    "intelligence": 19,
    "race": "human",
    "sex": "male",
    "statSum": 74,
    "strength": 13,
    "submitted": "2023-12-25T12:22:44.5646939Z",
    "willpower": 17
  },
  {
    "class": "channeler",
    "constitution": 10,
    "dexterity": 12,
    "homeland": "Ghealdan",
    "id": 139287,
    "intelligence": 17,
    "race": "human",
    "sex": "male",
    "statSum": 71,
    "strength": 15,
    "submitted": "2023-12-25T12:20:56.7299285Z",
    "willpower": 17
  },
  {
    "class": "channeler",
    "constitution": 12,
    "dexterity": 14,
    "homeland": "Ghealdan",
    "id": 139285,
    "intelligence": 17,
    "race": "human",
    "sex": "male",
    "statSum": 72,
    "strength": 13,
    "submitted": "2023-12-25T12:19:22.3781637Z",
    "willpower": 16
  },
  {
    "class": "channeler",
    "constitution": 12,
    "dexterity": 12,
    "homeland": "Ghealdan",
    "id": 139283,
    "intelligence": 19,
    "race": "human",
    "sex": "male",
    "statSum": 72,
    "strength": 12,
    "submitted": "2023-12-25T12:16:57.1173431Z",
    "willpower": 17
  },
  {
    "class": "channeler",
    "constitution": 10,
    "dexterity": 12,
    "homeland": "Ghealdan",
    "id": 139280,
    "intelligence": 19,
    "race": "human",
    "sex": "male",
    "statSum": 70,
    "strength": 14,
    "submitted": "2023-12-25T12:15:11.375322Z",
    "willpower": 15
  },
  {
    "class": "channeler",
    "constitution": 12,
    "dexterity": 15,
    "homeland": "Ghealdan",
    "id": 139278,
    "intelligence": 18,
    "race": "human",
    "sex": "male",
    "statSum": 74,
    "strength": 14,
    "submitted": "2023-12-25T12:13:34.4704547Z",
    "willpower": 15
  },
  {
    "class": "channeler",
    "constitution": 11,
    "dexterity": 12,
    "homeland": "Ghealdan",
    "id": 139275,
    "intelligence": 18,
    "race": "human",
    "sex": "male",
    "statSum": 72,
    "strength": 12,
    "submitted": "2023-12-25T12:11:47.1386877Z",
    "willpower": 19
  },
  {
    "class": "channeler",
    "constitution": 12,
    "dexterity": 11,
    "homeland": "Ghealdan",
    "id": 139273,
    "intelligence": 17,
    "race": "human",
    "sex": "male",
    "statSum": 71,
    "strength": 14,
    "submitted": "2023-12-25T12:09:43.8589689Z",
    "willpower": 17
  },
  {
    "class": "channeler",
    "constitution": 10,
    "dexterity": 14,
    "homeland": "Ghealdan",
    "id": 139270,
    "intelligence": 17,
    "race": "human",
    "sex": "male",
    "statSum": 73,
    "strength": 13,
    "submitted": "2023-12-25T12:07:42.5933372Z",
    "willpower": 19
  },
  {
    "class": "channeler",
    "constitution": 13,
    "dexterity": 12,
    "homeland": "Ghealdan",
    "id": 139268,
    "intelligence": 14,
    "race": "human",
    "sex": "male",
    "statSum": 70,
    "strength": 12,
    "submitted": "2023-12-25T12:05:47.4985118Z",
    "willpower": 19
  },
  {
    "class": "channeler",
    "constitution": 11,
    "dexterity": 15,
    "homeland": "Ghealdan",
    "id": 139265,
    "intelligence": 19,
    "race": "human",
    "sex": "male",
    "statSum": 75,
    "strength": 12,
    "submitted": "2023-12-25T12:04:25.5602955Z",
    "willpower": 18
  },
  {
    "class": "channeler",
    "constitution": 10,
    "dexterity": 13,
    "homeland": "Ghealdan",
    "id": 139262,
    "intelligence": 17,
    "race": "human",
    "sex": "male",
    "statSum": 71,
    "strength": 13,
    "submitted": "2023-12-25T12:01:56.8612462Z",
    "willpower": 18
  },
  {
    "class": "channeler",
    "constitution": 10,
    "dexterity": 15,
    "homeland": "Ghealdan",
    "id": 139260,
    "intelligence": 18,
    "race": "human",
    "sex": "male",
    "statSum": 71,
    "strength": 12,
    "submitted": "2023-12-25T11:59:37.8062785Z",
    "willpower": 16
  },
  {
    "class": "channeler",
    "constitution": 10,
    "dexterity": 13,
    "homeland": "Ghealdan",
    "id": 139257,
    "intelligence": 17,
    "race": "human",
    "sex": "male",
    "statSum": 70,
    "strength": 13,
    "submitted": "2023-12-25T11:56:59.7770066Z",
    "willpower": 17
  },
  {
    "class": "channeler",
    "constitution": 10,
    "dexterity": 13,
    "homeland": "Ghealdan",
    "id": 139253,
    "intelligence": 19,
    "race": "human",
    "sex": "male",
    "statSum": 74,
    "strength": 13,
    "submitted": "2023-12-25T11:55:00.1658671Z",
    "willpower": 19
  },
  {
    "class": "channeler",
    "constitution": 10,
    "dexterity": 13,
    "homeland": "Ghealdan",
    "id": 139251,
    "intelligence": 19,
    "race": "human",
    "sex": "male",
    "statSum": 71,
    "strength": 12,
    "submitted": "2023-12-25T11:53:09.9766299Z",
    "willpower": 17
  },
  {
    "class": "channeler",
    "constitution": 14,
    "dexterity": 13,
    "homeland": "Ghealdan",
    "id": 139249,
    "intelligence": 19,
    "race": "human",
    "sex": "male",
    "statSum": 77,
    "strength": 14,
    "submitted": "2023-12-25T11:51:36.1781554Z",
    "willpower": 17
  },
  {
    "class": "channeler",
    "constitution": 10,
    "dexterity": 12,
    "homeland": "Ghealdan",
    "id": 139247,
    "intelligence": 19,
    "race": "human",
    "sex": "male",
    "statSum": 73,
    "strength": 13,
    "submitted": "2023-12-25T11:50:04.5955544Z",
    "willpower": 19
  },
  {
    "class": "channeler",
    "constitution": 13,
    "dexterity": 12,
    "homeland": "Ghealdan",
    "id": 139245,
    "intelligence": 18,
    "race": "human",
    "sex": "male",
    "statSum": 73,
    "strength": 14,
    "submitted": "2023-12-25T11:48:02.5116216Z",
    "willpower": 16
  },
  {
    "class": "channeler",
    "constitution": 9,
    "dexterity": 12,
    "homeland": "Ghealdan",
    "id": 139243,
    "intelligence": 19,
    "race": "human",
    "sex": "male",
    "statSum": 74,
    "strength": 15,
    "submitted": "2023-12-25T11:46:09.8885119Z",
    "willpower": 19
  },
  {
    "class": "channeler",
    "constitution": 12,
    "dexterity": 15,
    "homeland": "Ghealdan",
    "id": 139241,
    "intelligence": 17,
    "race": "human",
    "sex": "male",
    "statSum": 73,
    "strength": 10,
    "submitted": "2023-12-25T11:44:39.7740657Z",
    "willpower": 19
  },
  {
    "class": "channeler",
    "constitution": 11,
    "dexterity": 13,
    "homeland": "Ghealdan",
    "id": 139238,
    "intelligence": 17,
    "race": "human",
    "sex": "male",
    "statSum": 72,
    "strength": 14,
    "submitted": "2023-12-25T11:43:14.0011673Z",
    "willpower": 17
  },
  {
    "class": "channeler",
    "constitution": 13,
    "dexterity": 15,
    "homeland": "Ghealdan",
    "id": 139235,
    "intelligence": 17,
    "race": "human",
    "sex": "male",
    "statSum": 73,
    "strength": 10,
    "submitted": "2023-12-25T11:41:31.3789216Z",
    "willpower": 18
  },
  {
    "class": "channeler",
    "constitution": 13,
    "dexterity": 11,
    "homeland": "Ghealdan",
    "id": 139233,
    "intelligence": 19,
    "race": "human",
    "sex": "male",
    "statSum": 71,
    "strength": 11,
    "submitted": "2023-12-25T11:39:13.7177905Z",
    "willpower": 17
  },
  {
    "class": "channeler",
    "constitution": 9,
    "dexterity": 13,
    "homeland": "Ghealdan",
    "id": 139231,
    "intelligence": 19,
    "race": "human",
    "sex": "male",
    "statSum": 70,
    "strength": 12,
    "submitted": "2023-12-25T11:37:15.6864057Z",
    "willpower": 17
  },
  {
    "class": "channeler",
    "constitution": 12,
    "dexterity": 12,
    "homeland": "Ghealdan",
    "id": 139228,
    "intelligence": 19,
    "race": "human",
    "sex": "male",
    "statSum": 76,
    "strength": 15,
    "submitted": "2023-12-25T11:35:36.1368072Z",
    "willpower": 18
  },
  {
    "class": "channeler",
    "constitution": 11,
    "dexterity": 12,
    "homeland": "Ghealdan",
    "id": 139227,
    "intelligence": 17,
    "race": "human",
    "sex": "male",
    "statSum": 70,
    "strength": 11,
    "submitted": "2023-12-25T11:33:49.000606Z",
    "willpower": 19
  },
  {
    "class": "channeler",
    "constitution": 10,
    "dexterity": 12,
    "homeland": "Ghealdan",
    "id": 139225,
    "intelligence": 18,
    "race": "human",
    "sex": "male",
    "statSum": 70,
    "strength": 11,
    "submitted": "2023-12-25T11:32:30.6097649Z",
    "willpower": 19
  },
  {
    "class": "channeler",
    "constitution": 11,
    "dexterity": 16,
    "homeland": "Ghealdan",
    "id": 139223,
    "intelligence": 18,
    "race": "human",
    "sex": "male",
    "statSum": 73,
    "strength": 11,
    "submitted": "2023-12-25T11:31:05.7965493Z",
    "willpower": 17
  },
  {
    "class": "channeler",
    "constitution": 10,
    "dexterity": 12,
    "homeland": "Ghealdan",
    "id": 139219,
    "intelligence": 19,
    "race": "human",
    "sex": "male",
    "statSum": 70,
    "strength": 11,
    "submitted": "2023-12-25T11:29:32.9674487Z",
    "willpower": 18
  },
  {
    "class": "channeler",
    "constitution": 10,
    "dexterity": 12,
    "homeland": "Ghealdan",
    "id": 139217,
    "intelligence": 19,
    "race": "human",
    "sex": "male",
    "statSum": 71,
    "strength": 13,
    "submitted": "2023-12-25T11:27:29.2793482Z",
    "willpower": 17
  },
  {
    "class": "channeler",
    "constitution": 9,
    "dexterity": 15,
    "homeland": "Ghealdan",
    "id": 139215,
    "intelligence": 19,
    "race": "human",
    "sex": "male",
    "statSum": 72,
    "strength": 12,
    "submitted": "2023-12-25T11:26:01.8616988Z",
    "willpower": 17
  },
  {
    "class": "channeler",
    "constitution": 9,
    "dexterity": 14,
    "homeland": "Ghealdan",
    "id": 139213,
    "intelligence": 16,
    "race": "human",
    "sex": "male",
    "statSum": 72,
    "strength": 14,
    "submitted": "2023-12-25T11:24:19.0712401Z",
    "willpower": 19
  },
  {
    "class": "channeler",
    "constitution": 13,
    "dexterity": 14,
    "homeland": "Ghealdan",
    "id": 139209,
    "intelligence": 16,
    "race": "human",
    "sex": "male",
    "statSum": 70,
    "strength": 14,
    "submitted": "2023-12-25T11:22:39.2954723Z",
    "willpower": 13
  },
  {
    "class": "channeler",
    "constitution": 10,
    "dexterity": 12,
    "homeland": "Ghealdan",
    "id": 139207,
    "intelligence": 18,
    "race": "human",
    "sex": "male",
    "statSum": 70,
    "strength": 11,
    "submitted": "2023-12-25T11:20:53.199993Z",
    "willpower": 19
  },
  {
    "class": "channeler",
    "constitution": 10,
    "dexterity": 15,
    "homeland": "Ghealdan",
    "id": 139204,
    "intelligence": 14,
    "race": "human",
    "sex": "male",
    "statSum": 70,
    "strength": 13,
    "submitted": "2023-12-25T11:18:54.3966317Z",
    "willpower": 18
  },
  {
    "class": "channeler",
    "constitution": 11,
    "dexterity": 12,
    "homeland": "Ghealdan",
    "id": 139203,
    "intelligence": 18,
    "race": "human",
    "sex": "male",
    "statSum": 72,
    "strength": 14,
    "submitted": "2023-12-25T11:17:20.8693206Z",
    "willpower": 17
  },
  {
    "class": "channeler",
    "constitution": 10,
    "dexterity": 15,
    "homeland": "Ghealdan",
    "id": 139200,
    "intelligence": 19,
    "race": "human",
    "sex": "male",
    "statSum": 71,
    "strength": 10,
    "submitted": "2023-12-25T11:15:15.0939107Z",
    "willpower": 17
  },
  {
    "class": "channeler",
    "constitution": 10,
    "dexterity": 14,
    "homeland": "Ghealdan",
    "id": 139198,
    "intelligence": 19,
    "race": "human",
    "sex": "male",
    "statSum": 71,
    "strength": 11,
    "submitted": "2023-12-25T11:13:25.3492654Z",
    "willpower": 17
  },
  {
    "class": "channeler",
    "constitution": 9,
    "dexterity": 12,
    "homeland": "Ghealdan",
    "id": 139194,
    "intelligence": 18,
    "race": "human",
    "sex": "male",
    "statSum": 70,
    "strength": 14,
    "submitted": "2023-12-25T11:11:33.1069441Z",
    "willpower": 17
  },
  {
    "class": "channeler",
    "constitution": 9,
    "dexterity": 15,
    "homeland": "Ghealdan",
    "id": 139192,
    "intelligence": 17,
    "race": "human",
    "sex": "male",
    "statSum": 71,
    "strength": 11,
    "submitted": "2023-12-25T11:09:44.705543Z",
    "willpower": 19
  },
  {
    "class": "channeler",
    "constitution": 12,
    "dexterity": 11,
    "homeland": "Ghealdan",
    "id": 139190,
    "intelligence": 17,
    "race": "human",
    "sex": "male",
    "statSum": 72,
    "strength": 13,
    "submitted": "2023-12-25T11:07:41.4274797Z",
    "willpower": 19
  },
  {
    "class": "channeler",
    "constitution": 12,
    "dexterity": 14,
    "homeland": "Ghealdan",
    "id": 139187,
    "intelligence": 15,
    "race": "human",
    "sex": "male",
    "statSum": 71,
    "strength": 14,
    "submitted": "2023-12-25T11:05:22.1512232Z",
    "willpower": 16
  },
  {
    "class": "channeler",
    "constitution": 12,
    "dexterity": 13,
    "homeland": "Ghealdan",
    "id": 139185,
    "intelligence": 17,
    "race": "human",
    "sex": "male",
    "statSum": 70,
    "strength": 9,
    "submitted": "2023-12-25T11:03:39.7547334Z",
    "willpower": 19
  },
  {
    "class": "channeler",
    "constitution": 10,
    "dexterity": 13,
    "homeland": "Ghealdan",
    "id": 139183,
    "intelligence": 17,
    "race": "human",
    "sex": "male",
    "statSum": 71,
    "strength": 14,
    "submitted": "2023-12-25T11:02:03.0817353Z",
    "willpower": 17
  },
  {
    "class": "channeler",
    "constitution": 10,
    "dexterity": 14,
    "homeland": "Ghealdan",
    "id": 139180,
    "intelligence": 17,
    "race": "human",
    "sex": "male",
    "statSum": 72,
    "strength": 13,
    "submitted": "2023-12-25T11:00:05.9854746Z",
    "willpower": 18
  },
  {
    "class": "channeler",
    "constitution": 11,
    "dexterity": 12,
    "homeland": "Ghealdan",
    "id": 139177,
    "intelligence": 17,
    "race": "human",
    "sex": "male",
    "statSum": 70,
    "strength": 13,
    "submitted": "2023-12-25T10:58:09.6056494Z",
    "willpower": 17
  },
  {
    "class": "channeler",
    "constitution": 11,
    "dexterity": 14,
    "homeland": "Ghealdan",
    "id": 139175,
    "intelligence": 17,
    "race": "human",
    "sex": "male",
    "statSum": 73,
    "strength": 12,
    "submitted": "2023-12-25T10:56:25.4362045Z",
    "willpower": 19
  },
  {
    "class": "channeler",
    "constitution": 10,
    "dexterity": 12,
    "homeland": "Ghealdan",
    "id": 139173,
    "intelligence": 19,
    "race": "human",
    "sex": "male",
    "statSum": 73,
    "strength": 15,
    "submitted": "2023-12-25T10:55:01.8574844Z",
    "willpower": 17
  },
  {
    "class": "channeler",
    "constitution": 10,
    "dexterity": 13,
    "homeland": "Ghealdan",
    "id": 139171,
    "intelligence": 19,
    "race": "human",
    "sex": "male",
    "statSum": 71,
    "strength": 11,
    "submitted": "2023-12-25T10:53:09.1478606Z",
    "willpower": 18
  },
  {
    "class": "channeler",
    "constitution": 13,
    "dexterity": 15,
    "homeland": "Ghealdan",
    "id": 139168,
    "intelligence": 14,
    "race": "human",
    "sex": "male",
    "statSum": 73,
    "strength": 12,
    "submitted": "2023-12-25T10:50:51.5693418Z",
    "willpower": 19
  },
  {
    "class": "channeler",
    "constitution": 10,
    "dexterity": 13,
    "homeland": "Ghealdan",
    "id": 139165,
    "intelligence": 19,
    "race": "human",
    "sex": "male",
    "statSum": 72,
    "strength": 11,
    "submitted": "2023-12-25T10:49:25.9846894Z",
    "willpower": 19
  },
  {
    "class": "channeler",
    "constitution": 13,
    "dexterity": 11,
    "homeland": "Ghealdan",
    "id": 139162,
    "intelligence": 17,
    "race": "human",
    "sex": "male",
    "statSum": 72,
    "strength": 14,
    "submitted": "2023-12-25T10:47:24.3464306Z",
    "willpower": 17
  },
  {
    "class": "channeler",
    "constitution": 10,
    "dexterity": 12,
    "homeland": "Ghealdan",
    "id": 139160,
    "intelligence": 18,
    "race": "human",
    "sex": "male",
    "statSum": 71,
    "strength": 12,
    "submitted": "2023-12-25T10:46:04.6027896Z",
    "willpower": 19
  },
  {
    "class": "channeler",
    "constitution": 10,
    "dexterity": 15,
    "homeland": "Ghealdan",
    "id": 139158,
    "intelligence": 18,
    "race": "human",
    "sex": "male",
    "statSum": 71,
    "strength": 10,
    "submitted": "2023-12-25T10:44:13.72043Z",
    "willpower": 18
  },
  {
    "class": "channeler",
    "constitution": 10,
    "dexterity": 16,
    "homeland": "Ghealdan",
    "id": 139156,
    "intelligence": 16,
    "race": "human",
    "sex": "male",
    "statSum": 74,
    "strength": 13,
    "submitted": "2023-12-25T10:42:39.3958428Z",
    "willpower": 19
  },
  {
    "class": "channeler",
    "constitution": 12,
    "dexterity": 13,
    "homeland": "Ghealdan",
    "id": 139154,
    "intelligence": 15,
    "race": "human",
    "sex": "male",
    "statSum": 72,
    "strength": 15,
    "submitted": "2023-12-25T10:41:05.4408648Z",
    "willpower": 17
  },
  {
    "class": "channeler",
    "constitution": 12,
    "dexterity": 12,
    "homeland": "Ghealdan",
    "id": 139152,
    "intelligence": 17,
    "race": "human",
    "sex": "male",
    "statSum": 71,
    "strength": 11,
    "submitted": "2023-12-25T10:39:43.6654795Z",
    "willpower": 19
  },
  {
    "class": "channeler",
    "constitution": 11,
    "dexterity": 11,
    "homeland": "Ghealdan",
    "id": 139150,
    "intelligence": 19,
    "race": "human",
    "sex": "male",
    "statSum": 71,
    "strength": 11,
    "submitted": "2023-12-25T10:38:05.6258181Z",
    "willpower": 19
  },
  {
    "class": "channeler",
    "constitution": 13,
    "dexterity": 15,
    "homeland": "Ghealdan",
    "id": 139147,
    "intelligence": 17,
    "race": "human",
    "sex": "male",
    "statSum": 74,
    "strength": 11,
    "submitted": "2023-12-25T10:36:25.0374449Z",
    "willpower": 18
  },
  {
    "class": "channeler",
    "constitution": 13,
    "dexterity": 12,
    "homeland": "Ghealdan",
    "id": 139145,
    "intelligence": 19,
    "race": "human",
    "sex": "male",
    "statSum": 76,
    "strength": 14,
    "submitted": "2023-12-25T10:34:48.9163261Z",
    "willpower": 18
  },
  {
    "class": "channeler",
    "constitution": 12,
    "dexterity": 14,
    "homeland": "Ghealdan",
    "id": 139142,
    "intelligence": 14,
    "race": "human",
    "sex": "male",
    "statSum": 72,
    "strength": 13,
    "submitted": "2023-12-25T10:32:26.4732503Z",
    "willpower": 19
  },
  {
    "class": "channeler",
    "constitution": 13,
    "dexterity": 13,
    "homeland": "Ghealdan",
    "id": 139140,
    "intelligence": 18,
    "race": "human",
    "sex": "male",
    "statSum": 70,
    "strength": 10,
    "submitted": "2023-12-25T10:30:46.7186029Z",
    "willpower": 16
  },
  {
    "class": "channeler",
    "constitution": 11,
    "dexterity": 15,
    "homeland": "Ghealdan",
    "id": 139138,
    "intelligence": 17,
    "race": "human",
    "sex": "male",
    "statSum": 71,
    "strength": 11,
    "submitted": "2023-12-25T10:29:13.6887093Z",
    "willpower": 17
  },
  {
    "class": "channeler",
    "constitution": 11,
    "dexterity": 13,
    "homeland": "Ghealdan",
    "id": 139134,
    "intelligence": 19,
    "race": "human",
    "sex": "male",
    "statSum": 74,
    "strength": 14,
    "submitted": "2023-12-25T10:27:24.499673Z",
    "willpower": 17
  },
  {
    "class": "channeler",
    "constitution": 12,
    "dexterity": 12,
    "homeland": "Ghealdan",
    "id": 139132,
    "intelligence": 17,
    "race": "human",
    "sex": "male",
    "statSum": 70,
    "strength": 12,
    "submitted": "2023-12-25T10:24:57.6901241Z",
    "willpower": 17
  },
  {
    "class": "channeler",
    "constitution": 13,
    "dexterity": 14,
    "homeland": "Ghealdan",
    "id": 139130,
    "intelligence": 17,
    "race": "human",
    "sex": "male",
    "statSum": 71,
    "strength": 11,
    "submitted": "2023-12-25T10:23:05.8249193Z",
    "willpower": 16
  },
  {
    "class": "channeler",
    "constitution": 13,
    "dexterity": 12,
    "homeland": "Ghealdan",
    "id": 139128,
    "intelligence": 19,
    "race": "human",
    "sex": "male",
    "statSum": 73,
    "strength": 11,
    "submitted": "2023-12-25T10:21:25.5113002Z",
    "willpower": 18
  },
  {
    "class": "channeler",
    "constitution": 10,
    "dexterity": 12,
    "homeland": "Ghealdan",
    "id": 139125,
    "intelligence": 19,
    "race": "human",
    "sex": "male",
    "statSum": 71,
    "strength": 11,
    "submitted": "2023-12-25T10:19:00.7587325Z",
    "willpower": 19
  },
  {
    "class": "channeler",
    "constitution": 10,
    "dexterity": 13,
    "homeland": "Ghealdan",
    "id": 139123,
    "intelligence": 17,
    "race": "human",
    "sex": "male",
    "statSum": 71,
    "strength": 14,
    "submitted": "2023-12-25T10:16:55.8230737Z",
    "willpower": 17
  },
  {
    "class": "channeler",
    "constitution": 13,
    "dexterity": 15,
    "homeland": "Ghealdan",
    "id": 139119,
    "intelligence": 19,
    "race": "human",
    "sex": "male",
    "statSum": 76,
    "strength": 12,
    "submitted": "2023-12-25T10:14:45.9778971Z",
    "willpower": 17
  },
  {
    "class": "channeler",
    "constitution": 13,
    "dexterity": 14,
    "homeland": "Ghealdan",
    "id": 139118,
    "intelligence": 18,
    "race": "human",
    "sex": "male",
    "statSum": 77,
    "strength": 13,
    "submitted": "2023-12-25T10:13:21.6117503Z",
    "willpower": 19
  },
  {
    "class": "channeler",
    "constitution": 14,
    "dexterity": 12,
    "homeland": "Ghealdan",
    "id": 139115,
    "intelligence": 19,
    "race": "human",
    "sex": "male",
    "statSum": 75,
    "strength": 13,
    "submitted": "2023-12-25T10:11:24.4921965Z",
    "willpower": 17
  },
  {
    "class": "channeler",
    "constitution": 13,
    "dexterity": 14,
    "homeland": "Ghealdan",
    "id": 139113,
    "intelligence": 19,
    "race": "human",
    "sex": "male",
    "statSum": 76,
    "strength": 11,
    "submitted": "2023-12-25T10:09:47.5433795Z",
    "willpower": 19
  },
  {
    "class": "channeler",
    "constitution": 13,
    "dexterity": 13,
    "homeland": "Ghealdan",
    "id": 139111,
    "intelligence": 18,
    "race": "human",
    "sex": "male",
    "statSum": 73,
    "strength": 11,
    "submitted": "2023-12-25T10:08:06.6560513Z",
    "willpower": 18
  },
  {
    "class": "channeler",
    "constitution": 10,
    "dexterity": 13,
    "homeland": "Ghealdan",
    "id": 139108,
    "intelligence": 19,
    "race": "human",
    "sex": "male",
    "statSum": 72,
    "strength": 13,
    "submitted": "2023-12-25T10:06:04.5055505Z",
    "willpower": 17
  },
  {
    "class": "channeler",
    "constitution": 14,
    "dexterity": 13,
    "homeland": "Ghealdan",
    "id": 139106,
    "intelligence": 18,
    "race": "human",
    "sex": "male",
    "statSum": 76,
    "strength": 14,
    "submitted": "2023-12-25T10:04:19.8712031Z",
    "willpower": 17
  },
  {
    "class": "channeler",
    "constitution": 14,
    "dexterity": 12,
    "homeland": "Ghealdan",
    "id": 139104,
    "intelligence": 19,
    "race": "human",
    "sex": "male",
    "statSum": 77,
    "strength": 13,
    "submitted": "2023-12-25T10:02:36.494381Z",
    "willpower": 19
  },
  {
    "class": "channeler",
    "constitution": 13,
    "dexterity": 12,
    "homeland": "Ghealdan",
    "id": 139102,
    "intelligence": 17,
    "race": "human",
    "sex": "male",
    "statSum": 74,
    "strength": 13,
    "submitted": "2023-12-25T10:00:43.1825261Z",
    "willpower": 19
  },
  {
    "class": "channeler",
    "constitution": 13,
    "dexterity": 13,
    "homeland": "Ghealdan",
    "id": 139098,
    "intelligence": 19,
    "race": "human",
    "sex": "male",
    "statSum": 73,
    "strength": 11,
    "submitted": "2023-12-25T09:58:41.5051094Z",
    "willpower": 17
  },
  {
    "class": "channeler",
    "constitution": 12,
    "dexterity": 12,
    "homeland": "Ghealdan",
    "id": 139096,
    "intelligence": 17,
    "race": "human",
    "sex": "male",
    "statSum": 70,
    "strength": 12,
    "submitted": "2023-12-25T09:56:15.5666906Z",
    "willpower": 17
  },
  {
    "class": "channeler",
    "constitution": 13,
    "dexterity": 14,
    "homeland": "Ghealdan",
    "id": 139094,
    "intelligence": 19,
    "race": "human",
    "sex": "male",
    "statSum": 74,
    "strength": 11,
    "submitted": "2023-12-25T09:54:20.8618454Z",
    "willpower": 17
  },
  {
    "class": "channeler",
    "constitution": 13,
    "dexterity": 12,
    "homeland": "Ghealdan",
    "id": 139091,
    "intelligence": 19,
    "race": "human",
    "sex": "male",
    "statSum": 74,
    "strength": 11,
    "submitted": "2023-12-25T09:52:25.1059578Z",
    "willpower": 19
  },
  {
    "class": "channeler",
    "constitution": 12,
    "dexterity": 12,
    "homeland": "Ghealdan",
    "id": 139089,
    "intelligence": 19,
    "race": "human",
    "sex": "male",
    "statSum": 74,
    "strength": 14,
    "submitted": "2023-12-25T09:50:40.496852Z",
    "willpower": 17
  },
  {
    "class": "channeler",
    "constitution": 9,
    "dexterity": 14,
    "homeland": "Ghealdan",
    "id": 139086,
    "intelligence": 17,
    "race": "human",
    "sex": "male",
    "statSum": 70,
    "strength": 11,
    "submitted": "2023-12-25T09:48:29.595996Z",
    "willpower": 19
  },
  {
    "class": "channeler",
    "constitution": 13,
    "dexterity": 12,
    "homeland": "Ghealdan",
    "id": 139084,
    "intelligence": 19,
    "race": "human",
    "sex": "male",
    "statSum": 76,
    "strength": 13,
    "submitted": "2023-12-25T09:46:33.2517539Z",
    "willpower": 19
  },
  {
    "class": "channeler",
    "constitution": 10,
    "dexterity": 15,
    "homeland": "Ghealdan",
    "id": 139081,
    "intelligence": 17,
    "race": "human",
    "sex": "male",
    "statSum": 72,
    "strength": 12,
    "submitted": "2023-12-25T09:44:58.9183571Z",
    "willpower": 18
  },
  {
    "class": "channeler",
    "constitution": 13,
    "dexterity": 12,
    "homeland": "Ghealdan",
    "id": 139078,
    "intelligence": 16,
    "race": "human",
    "sex": "male",
    "statSum": 72,
    "strength": 13,
    "submitted": "2023-12-25T09:43:03.7669378Z",
    "willpower": 18
  },
  {
    "class": "channeler",
    "constitution": 13,
    "dexterity": 13,
    "homeland": "Ghealdan",
    "id": 139076,
    "intelligence": 19,
    "race": "human",
    "sex": "male",
    "statSum": 71,
    "strength": 9,
    "submitted": "2023-12-25T09:41:07.7597921Z",
    "willpower": 17
  },
  {
    "class": "channeler",
    "constitution": 10,
    "dexterity": 12,
    "homeland": "Ghealdan",
    "id": 139073,
    "intelligence": 19,
    "race": "human",
    "sex": "male",
    "statSum": 75,
    "strength": 15,
    "submitted": "2023-12-25T09:38:20.3187733Z",
    "willpower": 19
  },
  {
    "class": "channeler",
    "constitution": 12,
    "dexterity": 15,
    "homeland": "Ghealdan",
    "id": 139071,
    "intelligence": 19,
    "race": "human",
    "sex": "male",
    "statSum": 75,
    "strength": 12,
    "submitted": "2023-12-25T09:36:34.0042221Z",
    "willpower": 17
  },
  {
    "class": "channeler",
    "constitution": 10,
    "dexterity": 14,
    "homeland": "Ghealdan",
    "id": 139068,
    "intelligence": 17,
    "race": "human",
    "sex": "male",
    "statSum": 70,
    "strength": 11,
    "submitted": "2023-12-25T09:35:06.1816764Z",
    "willpower": 18
  },
  {
    "class": "channeler",
    "constitution": 10,
    "dexterity": 14,
    "homeland": "Ghealdan",
    "id": 139066,
    "intelligence": 17,
    "race": "human",
    "sex": "male",
    "statSum": 72,
    "strength": 14,
    "submitted": "2023-12-25T09:33:15.0660037Z",
    "willpower": 17
  },
  {
    "class": "channeler",
    "constitution": 10,
    "dexterity": 13,
    "homeland": "Ghealdan",
    "id": 139063,
    "intelligence": 19,
    "race": "human",
    "sex": "male",
    "statSum": 72,
    "strength": 11,
    "submitted": "2023-12-25T09:30:58.6868544Z",
    "willpower": 19
  },
  {
    "class": "channeler",
    "constitution": 12,
    "dexterity": 12,
    "homeland": "Ghealdan",
    "id": 139061,
    "intelligence": 19,
    "race": "human",
    "sex": "male",
    "statSum": 71,
    "strength": 11,
    "submitted": "2023-12-25T09:28:41.957138Z",
    "willpower": 17
  },
  {
    "class": "channeler",
    "constitution": 11,
    "dexterity": 11,
    "homeland": "Ghealdan",
    "id": 139060,
    "intelligence": 18,
    "race": "human",
    "sex": "male",
    "statSum": 72,
    "strength": 13,
    "submitted": "2023-12-25T09:26:57.6716402Z",
    "willpower": 19
  },
  {
    "class": "channeler",
    "constitution": 13,
    "dexterity": 10,
    "homeland": "Ghealdan",
    "id": 139059,
    "intelligence": 18,
    "race": "human",
    "sex": "male",
    "statSum": 71,
    "strength": 13,
    "submitted": "2023-12-25T09:25:00.7891815Z",
    "willpower": 17
  },
  {
    "class": "channeler",
    "constitution": 9,
    "dexterity": 14,
    "homeland": "Ghealdan",
    "id": 139057,
    "intelligence": 19,
    "race": "human",
    "sex": "male",
    "statSum": 70,
    "strength": 11,
    "submitted": "2023-12-25T09:23:11.0101241Z",
    "willpower": 17
  },
  {
    "class": "channeler",
    "constitution": 12,
    "dexterity": 9,
    "homeland": "Ghealdan",
    "id": 139056,
    "intelligence": 19,
    "race": "human",
    "sex": "male",
    "statSum": 72,
    "strength": 14,
    "submitted": "2023-12-25T09:21:31.8829642Z",
    "willpower": 18
  },
  {
    "class": "channeler",
    "constitution": 11,
    "dexterity": 12,
    "homeland": "Ghealdan",
    "id": 139055,
    "intelligence": 18,
    "race": "human",
    "sex": "male",
    "statSum": 71,
    "strength": 12,
    "submitted": "2023-12-25T09:19:37.1997187Z",
    "willpower": 18
  },
  {
    "class": "channeler",
    "constitution": 13,
    "dexterity": 12,
    "homeland": "Ghealdan",
    "id": 139054,
    "intelligence": 19,
    "race": "human",
    "sex": "male",
    "statSum": 74,
    "strength": 12,
    "submitted": "2023-12-25T09:17:42.0854654Z",
    "willpower": 18
  },
  {
    "class": "channeler",
    "constitution": 11,
    "dexterity": 12,
    "homeland": "Ghealdan",
    "id": 139053,
    "intelligence": 17,
    "race": "human",
    "sex": "male",
    "statSum": 72,
    "strength": 15,
    "submitted": "2023-12-25T09:15:40.479259Z",
    "willpower": 17
  },
  {
    "class": "channeler",
    "constitution": 12,
    "dexterity": 12,
    "homeland": "Ghealdan",
    "id": 139052,
    "intelligence": 18,
    "race": "human",
    "sex": "male",
    "statSum": 72,
    "strength": 13,
    "submitted": "2023-12-25T09:13:29.5281685Z",
    "willpower": 17
  },
  {
    "class": "channeler",
    "constitution": 11,
    "dexterity": 15,
    "homeland": "Ghealdan",
    "id": 139051,
    "intelligence": 19,
    "race": "human",
    "sex": "male",
    "statSum": 74,
    "strength": 11,
    "submitted": "2023-12-25T09:11:51.4713714Z",
    "willpower": 18
  },
  {
    "class": "channeler",
    "constitution": 12,
    "dexterity": 13,
    "homeland": "Ghealdan",
    "id": 139049,
    "intelligence": 16,
    "race": "human",
    "sex": "male",
    "statSum": 71,
    "strength": 13,
    "submitted": "2023-12-25T09:10:06.6035101Z",
    "willpower": 17
  },
  {
    "class": "channeler",
    "constitution": 13,
    "dexterity": 14,
    "homeland": "Ghealdan",
    "id": 139048,
    "intelligence": 18,
    "race": "human",
    "sex": "male",
    "statSum": 75,
    "strength": 13,
    "submitted": "2023-12-25T09:08:39.1166553Z",
    "willpower": 17
  },
  {
    "class": "channeler",
    "constitution": 11,
    "dexterity": 12,
    "homeland": "Ghealdan",
    "id": 139047,
    "intelligence": 19,
    "race": "human",
    "sex": "male",
    "statSum": 75,
    "strength": 14,
    "submitted": "2023-12-25T09:06:48.4493111Z",
    "willpower": 19
  },
  {
    "class": "channeler",
    "constitution": 13,
    "dexterity": 16,
    "homeland": "Ghealdan",
    "id": 139046,
    "intelligence": 16,
    "race": "human",
    "sex": "male",
    "statSum": 72,
    "strength": 11,
    "submitted": "2023-12-25T09:05:10.0375584Z",
    "willpower": 16
  },
  {
    "class": "channeler",
    "constitution": 9,
    "dexterity": 15,
    "homeland": "Ghealdan",
    "id": 139045,
    "intelligence": 19,
    "race": "human",
    "sex": "male",
    "statSum": 73,
    "strength": 11,
    "submitted": "2023-12-25T09:03:46.1177322Z",
    "willpower": 19
  },
  {
    "class": "channeler",
    "constitution": 14,
    "dexterity": 14,
    "homeland": "Ghealdan",
    "id": 139044,
    "intelligence": 19,
    "race": "human",
    "sex": "male",
    "statSum": 79,
    "strength": 14,
    "submitted": "2023-12-25T09:02:10.2545088Z",
    "willpower": 18
  },
  {
    "class": "channeler",
    "constitution": 11,
    "dexterity": 12,
    "homeland": "Ghealdan",
    "id": 139042,
    "intelligence": 19,
    "race": "human",
    "sex": "male",
    "statSum": 70,
    "strength": 9,
    "submitted": "2023-12-25T09:00:36.4543099Z",
    "willpower": 19
  },
  {
    "class": "channeler",
    "constitution": 12,
    "dexterity": 15,
    "homeland": "Ghealdan",
    "id": 139041,
    "intelligence": 17,
    "race": "human",
    "sex": "male",
    "statSum": 72,
    "strength": 11,
    "submitted": "2023-12-25T08:59:01.4094964Z",
    "willpower": 17
  },
  {
    "class": "channeler",
    "constitution": 14,
    "dexterity": 16,
    "homeland": "Ghealdan",
    "id": 139040,
    "intelligence": 15,
    "race": "human",
    "sex": "male",
    "statSum": 74,
    "strength": 10,
    "submitted": "2023-12-25T08:57:39.2312313Z",
    "willpower": 19
  },
  {
    "class": "channeler",
    "constitution": 13,
    "dexterity": 12,
    "homeland": "Ghealdan",
    "id": 139039,
    "intelligence": 17,
    "race": "human",
    "sex": "male",
    "statSum": 73,
    "strength": 13,
    "submitted": "2023-12-25T08:56:00.1138207Z",
    "willpower": 18
  },
  {
    "class": "channeler",
    "constitution": 9,
    "dexterity": 11,
    "homeland": "Ghealdan",
    "id": 139038,
    "intelligence": 19,
    "race": "human",
    "sex": "male",
    "statSum": 70,
    "strength": 12,
    "submitted": "2023-12-25T08:54:31.0540163Z",
    "willpower": 19
  },
  {
    "class": "channeler",
    "constitution": 13,
    "dexterity": 13,
    "homeland": "Ghealdan",
    "id": 139037,
    "intelligence": 17,
    "race": "human",
    "sex": "male",
    "statSum": 72,
    "strength": 12,
    "submitted": "2023-12-25T08:52:41.2976127Z",
    "willpower": 17
  },
  {
    "class": "channeler",
    "constitution": 9,
    "dexterity": 16,
    "homeland": "Ghealdan",
    "id": 139036,
    "intelligence": 18,
    "race": "human",
    "sex": "male",
    "statSum": 74,
    "strength": 12,
    "submitted": "2023-12-25T08:51:15.4333678Z",
    "willpower": 19
  },
  {
    "class": "channeler",
    "constitution": 12,
    "dexterity": 12,
    "homeland": "Ghealdan",
    "id": 139034,
    "intelligence": 17,
    "race": "human",
    "sex": "male",
    "statSum": 73,
    "strength": 15,
    "submitted": "2023-12-25T08:48:45.1226458Z",
    "willpower": 17
  },
  {
    "class": "channeler",
    "constitution": 9,
    "dexterity": 12,
    "homeland": "Ghealdan",
    "id": 139033,
    "intelligence": 17,
    "race": "human",
    "sex": "male",
    "statSum": 71,
    "strength": 14,
    "submitted": "2023-12-25T08:46:47.7056547Z",
    "willpower": 19
  },
  {
    "class": "channeler",
    "constitution": 13,
    "dexterity": 14,
    "homeland": "Ghealdan",
    "id": 139032,
    "intelligence": 17,
    "race": "human",
    "sex": "male",
    "statSum": 72,
    "strength": 11,
    "submitted": "2023-12-25T08:44:31.8240684Z",
    "willpower": 17
  },
  {
    "class": "channeler",
    "constitution": 14,
    "dexterity": 12,
    "homeland": "Ghealdan",
    "id": 139031,
    "intelligence": 13,
    "race": "human",
    "sex": "male",
    "statSum": 71,
    "strength": 13,
    "submitted": "2023-12-25T08:42:46.1244592Z",
    "willpower": 19
  },
  {
    "class": "channeler",
    "constitution": 10,
    "dexterity": 14,
    "homeland": "Ghealdan",
    "id": 139030,
    "intelligence": 18,
    "race": "human",
    "sex": "male",
    "statSum": 73,
    "strength": 14,
    "submitted": "2023-12-25T08:41:03.8973986Z",
    "willpower": 17
  },
  {
    "class": "channeler",
    "constitution": 11,
    "dexterity": 13,
    "homeland": "Ghealdan",
    "id": 139028,
    "intelligence": 17,
    "race": "human",
    "sex": "male",
    "statSum": 70,
    "strength": 11,
    "submitted": "2023-12-25T08:38:59.7907953Z",
    "willpower": 18
  },
  {
    "class": "channeler",
    "constitution": 11,
    "dexterity": 14,
    "homeland": "Ghealdan",
    "id": 139027,
    "intelligence": 18,
    "race": "human",
    "sex": "male",
    "statSum": 76,
    "strength": 14,
    "submitted": "2023-12-25T08:37:10.4223394Z",
    "willpower": 19
  },
  {
    "class": "channeler",
    "constitution": 10,
    "dexterity": 16,
    "homeland": "Ghealdan",
    "id": 139026,
    "intelligence": 17,
    "race": "human",
    "sex": "male",
    "statSum": 70,
    "strength": 14,
    "submitted": "2023-12-25T08:35:32.9277199Z",
    "willpower": 13
  },
  {
    "class": "channeler",
    "constitution": 9,
    "dexterity": 13,
    "homeland": "Ghealdan",
    "id": 139025,
    "intelligence": 18,
    "race": "human",
    "sex": "male",
    "statSum": 73,
    "strength": 14,
    "submitted": "2023-12-25T08:33:23.9180287Z",
    "willpower": 19
  },
  {
    "class": "channeler",
    "constitution": 11,
    "dexterity": 14,
    "homeland": "Ghealdan",
    "id": 139024,
    "intelligence": 19,
    "race": "human",
    "sex": "male",
    "statSum": 73,
    "strength": 12,
    "submitted": "2023-12-25T08:31:49.9346312Z",
    "willpower": 17
  },
  {
    "class": "channeler",
    "constitution": 9,
    "dexterity": 12,
    "homeland": "Ghealdan",
    "id": 139023,
    "intelligence": 19,
    "race": "human",
    "sex": "male",
    "statSum": 72,
    "strength": 13,
    "submitted": "2023-12-25T08:30:13.866027Z",
    "willpower": 19
  },
  {
    "class": "channeler",
    "constitution": 10,
    "dexterity": 13,
    "homeland": "Ghealdan",
    "id": 139021,
    "intelligence": 19,
    "race": "human",
    "sex": "male",
    "statSum": 70,
    "strength": 11,
    "submitted": "2023-12-25T08:28:06.0844476Z",
    "willpower": 17
  },
  {
    "class": "channeler",
    "constitution": 10,
    "dexterity": 16,
    "homeland": "Ghealdan",
    "id": 139020,
    "intelligence": 18,
    "race": "human",
    "sex": "male",
    "statSum": 74,
    "strength": 13,
    "submitted": "2023-12-25T08:26:16.1122233Z",
    "willpower": 17
  },
  {
    "class": "channeler",
    "constitution": 13,
    "dexterity": 12,
    "homeland": "Ghealdan",
    "id": 139019,
    "intelligence": 19,
    "race": "human",
    "sex": "male",
    "statSum": 72,
    "strength": 12,
    "submitted": "2023-12-25T08:24:21.8389182Z",
    "willpower": 16
  },
  {
    "class": "channeler",
    "constitution": 13,
    "dexterity": 12,
    "homeland": "Ghealdan",
    "id": 139018,
    "intelligence": 15,
    "race": "human",
    "sex": "male",
    "statSum": 70,
    "strength": 13,
    "submitted": "2023-12-25T08:22:28.2727791Z",
    "willpower": 17
  },
  {
    "class": "channeler",
    "constitution": 12,
    "dexterity": 12,
    "homeland": "Ghealdan",
    "id": 139017,
    "intelligence": 17,
    "race": "human",
    "sex": "male",
    "statSum": 71,
    "strength": 13,
    "submitted": "2023-12-25T08:20:15.6538702Z",
    "willpower": 17
  },
  {
    "class": "channeler",
    "constitution": 12,
    "dexterity": 14,
    "homeland": "Ghealdan",
    "id": 139015,
    "intelligence": 19,
    "race": "human",
    "sex": "male",
    "statSum": 77,
    "strength": 14,
    "submitted": "2023-12-25T08:18:33.3455362Z",
    "willpower": 18
  },
  {
    "class": "channeler",
    "constitution": 9,
    "dexterity": 14,
    "homeland": "Ghealdan",
    "id": 139014,
    "intelligence": 19,
    "race": "human",
    "sex": "male",
    "statSum": 72,
    "strength": 12,
    "submitted": "2023-12-25T08:16:39.955967Z",
    "willpower": 18
  },
  {
    "class": "channeler",
    "constitution": 10,
    "dexterity": 14,
    "homeland": "Ghealdan",
    "id": 139013,
    "intelligence": 19,
    "race": "human",
    "sex": "male",
    "statSum": 72,
    "strength": 11,
    "submitted": "2023-12-25T08:15:13.7844149Z",
    "willpower": 18
  },
  {
    "class": "channeler",
    "constitution": 10,
    "dexterity": 15,
    "homeland": "Ghealdan",
    "id": 139011,
    "intelligence": 19,
    "race": "human",
    "sex": "male",
    "statSum": 74,
    "strength": 14,
    "submitted": "2023-12-25T08:13:22.9574121Z",
    "willpower": 16
  },
  {
    "class": "channeler",
    "constitution": 12,
    "dexterity": 14,
    "homeland": "Ghealdan",
    "id": 139010,
    "intelligence": 19,
    "race": "human",
    "sex": "male",
    "statSum": 75,
    "strength": 11,
    "submitted": "2023-12-25T08:11:48.0718643Z",
    "willpower": 19
  },
  {
    "class": "channeler",
    "constitution": 13,
    "dexterity": 12,
    "homeland": "Ghealdan",
    "id": 139009,
    "intelligence": 17,
    "race": "human",
    "sex": "male",
    "statSum": 72,
    "strength": 12,
    "submitted": "2023-12-25T08:06:28.8888163Z",
    "willpower": 18
  },
  {
    "class": "channeler",
    "constitution": 10,
    "dexterity": 12,
    "homeland": "Ghealdan",
    "id": 139008,
    "intelligence": 19,
    "race": "human",
    "sex": "male",
    "statSum": 72,
    "strength": 12,
    "submitted": "2023-12-25T08:04:31.6272588Z",
    "willpower": 19
  },
  {
    "class": "channeler",
    "constitution": 9,
    "dexterity": 11,
    "homeland": "Ghealdan",
    "id": 139007,
    "intelligence": 17,
    "race": "human",
    "sex": "male",
    "statSum": 71,
    "strength": 15,
    "submitted": "2023-12-25T08:02:41.7932493Z",
    "willpower": 19
  },
  {
    "class": "channeler",
    "constitution": 11,
    "dexterity": 12,
    "homeland": "Ghealdan",
    "id": 139006,
    "intelligence": 17,
    "race": "human",
    "sex": "male",
    "statSum": 71,
    "strength": 14,
    "submitted": "2023-12-25T08:01:08.129731Z",
    "willpower": 17
  },
  {
    "class": "channeler",
    "constitution": 10,
    "dexterity": 14,
    "homeland": "Ghealdan",
    "id": 139004,
    "intelligence": 19,
    "race": "human",
    "sex": "male",
    "statSum": 73,
    "strength": 11,
    "submitted": "2023-12-25T07:59:16.5622702Z",
    "willpower": 19
  },
  {
    "class": "channeler",
    "constitution": 13,
    "dexterity": 13,
    "homeland": "Ghealdan",
    "id": 139003,
    "intelligence": 17,
    "race": "human",
    "sex": "male",
    "statSum": 71,
    "strength": 11,
    "submitted": "2023-12-25T07:57:12.0679651Z",
    "willpower": 17
  },
  {
    "class": "channeler",
    "constitution": 13,
    "dexterity": 14,
    "homeland": "Ghealdan",
    "id": 139002,
    "intelligence": 18,
    "race": "human",
    "sex": "male",
    "statSum": 78,
    "strength": 14,
    "submitted": "2023-12-25T07:55:32.5326323Z",
    "willpower": 19
  },
  {
    "class": "channeler",
    "constitution": 10,
    "dexterity": 16,
    "homeland": "Ghealdan",
    "id": 139001,
    "intelligence": 19,
    "race": "human",
    "sex": "male",
    "statSum": 76,
    "strength": 14,
    "submitted": "2023-12-25T07:53:54.233407Z",
    "willpower": 17
  },
  {
    "class": "channeler",
    "constitution": 11,
    "dexterity": 12,
    "homeland": "Ghealdan",
    "id": 138999,
    "intelligence": 16,
    "race": "human",
    "sex": "male",
    "statSum": 71,
    "strength": 13,
    "submitted": "2023-12-25T07:52:08.9417407Z",
    "willpower": 19
  },
  {
    "class": "channeler",
    "constitution": 11,
    "dexterity": 12,
    "homeland": "Ghealdan",
    "id": 138998,
    "intelligence": 18,
    "race": "human",
    "sex": "male",
    "statSum": 71,
    "strength": 11,
    "submitted": "2023-12-25T07:50:26.9640537Z",
    "willpower": 19
  }
]