class,constitution,dexterity,homeland,id,intelligence,race,sex,statSum,strength,submitted,willpower
channeler,9,15,the,173032,13,human,female,70,14,2024-01-20T04:02:30.6434084Z,19
channeler,9,15,the,172872,17,human,female,70,14,2024-01-20T04:02:30.6434084Z,15
channeler,10,14,the,172560,14,human,female,70,15,2024-01-20T04:02:29.2691383Z,17
channeler,10,12,the,172419,15,human,female,70,15,2024-01-20T04:02:29.2691383Z,18
channeler,10,13,the,172416,15,human,female,70,15,2024-01-20T04:02:29.2691383Z,17
channeler,10,16,the,172380,15,human,female,70,17,2024-01-20T04:02:29.2691383Z,12
channeler,10,12,the,172189,17,human,female,70,14,2024-01-20T04:02:29.2691383Z,17
channeler,10,13,the,172163,17,human,female,70,16,2024-01-20T04:02:29.2691383Z,14
channeler,10,11,the,172068,18,human,female,70,16,2024-01-20T04:02:29.2691383Z,15
channeler,11,15,the,171929,15,human,female,70,12,2024-01-20T04:02:29.2691383Z,17
channeler,11,12,the,171877,15,human,female,70,17,2024-01-20T04:02:29.2691383Z,15
channeler,11,13,the,171723,19,human,female,70,14,2024-01-20T04:02:26.2713453Z,13
channeler,12,13,the,171598,14,human,female,70,14,2024-01-20T04:02:26.2713453Z,17
channeler,12,14,the,171593,14,human,female,70,14,2024-01-20T04:02:26.2713453Z,16
channeler,12,15,the,171509,15,human,female,70,12,2024-01-20T04:02:26.2713453Z,16
channeler,12,13,the,171457,15,human,female,70,14,2024-01-20T04:02:26.2713453Z,16
channeler,12,14,the,171421,15,human,female,70,14,2024-01-20T04:02:26.2713453Z,15
channeler,12,15,the,171394,15,human,female,70,14,2024-01-20T04:02:26.2713453Z,14
channeler,12,14,the,171356,15,human,female,70,15,2024-01-20T04:02:26.2713453Z,14
channeler,12,11,the,171315,15,human,female,70,18,2024-01-20T04:02:26.2713453Z,14
channeler,12,13,the,171255,16,human,female,70,14,2024-01-20T04:02:26.2713453Z,15
channeler,12,12,the,171209,17,human,female,70,12,2024-01-20T04:02:26.2713453Z,17
channeler,12,11,the,171167,17,human,female,70,14,2024-01-20T04:02:26.2713453Z,16
channeler,12,13,the,171096,18,human,female,70,14,2024-01-20T04:02:26.2713453Z,13
channeler,13,13,the,170959,14,human,female,70,14,2024-01-20T04:02:26.2713453Z,16
channeler,13,13,the,170860,15,human,female,70,14,2024-01-20T04:02:26.2713453Z,15
channeler,13,13,the,170859,15,human,female,70,14,2024-01-20T04:02:26.2713453Z,15
channeler,13,13,the,170834,15,human,female,70,15,2024-01-20T04:02:26.2713453Z,14
channeler,13,13,the,170822,15,human,female,70,16,2024-01-20T04:02:26.2713453Z,13
channeler,13,13,the,170821,15,human,female,70,16,2024-01-20T04:02:26.2713453Z,13
channeler,13,13,the,170769,16,human,female,70,14,2024-01-20T04:02:26.2713453Z,14
channeler,14,13,the,170615,14,human,female,70,13,2024-01-20T04:02:23.9985578Z,16
channeler,14,13,the,170568,14,human,female,70,16,2024-01-20T04:02:23.9985578Z,13
channeler,14,13,the,170537,15,human,female,70,13,2024-01-20T04:02:23.9985578Z,15
channeler,14,13,the,170536,15,human,female,70,13,2024-01-20T04:02:23.9985578Z,15
channeler,14,13,the,170535,15,human,female,70,13,2024-01-20T04:02:23.9985578Z,15
channeler,14,13,the,170500,15,human,female,70,14,2024-01-20T04:02:23.9985578Z,14
channeler,14,15,the,170491,15,human,female,70,14,2024-01-20T04:02:23.9985578Z,12
channeler,15,13,the,170417,14,human,female,70,14,2024-01-20T04:02:23.9985578Z,14
channeler,15,11,the,170409,15,human,female,70,13,2024-01-20T04:02:23.9985578Z,16
channeler,15,13,the,170408,15,human,female,70,13,2024-01-20T04:02:23.9985578Z,14
channeler,10,14,the,169143,18,human,female,71,13,2024-01-20T04:02:22.3812404Z,16
channeler,11,15,the,169098,12,human,female,71,16,2024-01-20T04:02:22.3812404Z,17
channeler,11,15,the,168971,15,human,female,71,15,2024-01-20T04:02:22.3812404Z,15
channeler,11,15,the,168941,16,human,female,71,13,2024-01-20T04:02:22.3812404Z,16
channeler,11,12,the,168828,18,human,female,71,14,2024-01-20T04:02:22.3812404Z,16
channeler,12,13,the,168782,13,human,female,71,17,2024-01-20T04:02:22.3812404Z,16
channeler,12,12,the,168686,14,human,female,71,16,2024-01-20T04:02:20.4300239Z,17
channeler,12,14,the,168646,15,human,female,71,12,2024-01-20T04:02:20.4300239Z,18
channeler,12,14,the,168630,15,human,female,71,13,2024-01-20T04:02:20.4300239Z,17
channeler,12,12,the,168622,15,human,female,71,14,2024-01-20T04:02:20.4300239Z,18
channeler,12,13,the,168597,15,human,female,71,14,2024-01-20T04:02:20.4300239Z,17
channeler,12,13,the,168596,15,human,female,71,14,2024-01-20T04:02:20.4300239Z,17
channeler,12,13,the,168595,15,human,female,71,14,2024-01-20T04:02:20.4300239Z,17
channeler,12,13,the,168594,15,human,female,71,14,2024-01-20T04:02:20.4300239Z,17
channeler,12,14,the,168513,15,human,female,71,15,2024-01-20T04:02:20.4300239Z,15
channeler,12,13,the,168477,15,human,female,71,16,2024-01-20T04:02:20.4300239Z,15
channeler,12,13,the,168476,15,human,female,71,16,2024-01-20T04:02:20.4300239Z,15
channeler,12,14,the,168458,15,human,female,71,16,2024-01-20T04:02:20.4300239Z,14
channeler,12,13,the,168451,15,human,female,71,17,2024-01-20T04:02:20.4300239Z,14
channeler,12,13,the,168434,16,human,female,71,13,2024-01-20T04:02:20.4300239Z,17
channeler,12,12,the,168428,16,human,female,71,14,2024-01-20T04:02:20.4300239Z,17
channeler,12,13,the,168331,17,human,female,71,14,2024-01-20T04:02:20.4300239Z,15
channeler,12,12,the,168301,17,human,female,71,15,2024-01-20T04:02:20.4300239Z,15
channeler,12,14,the,168245,18,human,female,71,14,2024-01-20T04:02:20.4300239Z,13
channeler,13,14,the,168212,13,human,female,71,14,2024-01-20T04:02:20.4300239Z,17
channeler,13,14,the,168199,13,human,female,71,16,2024-01-20T04:02:20.4300239Z,15
channeler,13,15,the,168043,15,human,female,71,14,2024-01-20T04:02:20.4300239Z,14
channeler,13,13,the,168031,15,human,female,71,15,2024-01-20T04:02:20.4300239Z,15
channeler,13,14,the,167926,17,human,female,71,14,2024-01-20T04:02:20.4300239Z,13
channeler,13,11,the,167925,17,human,female,71,15,2024-01-20T04:02:20.4300239Z,15
channeler,13,11,the,167904,18,human,female,71,14,2024-01-20T04:02:20.4300239Z,15
channeler,13,10,the,167902,18,human,female,71,15,2024-01-20T04:02:20.4300239Z,15
channeler,14,13,the,167732,15,human,female,71,12,2024-01-20T04:02:18.6472975Z,17
channeler,14,16,the,167656,15,human,female,71,14,2024-01-20T04:02:18.6472975Z,12
channeler,14,13,the,167583,17,human,female,71,13,2024-01-20T04:02:18.6472975Z,14
channeler,15,11,the,167519,15,human,female,71,15,2024-01-20T04:02:18.6472975Z,15
channeler,15,14,the,167509,16,human,female,71,12,2024-01-20T04:02:18.6472975Z,14
channeler,10,13,the,166416,18,human,female,72,16,2024-01-20T04:02:17.4687474Z,15
channeler,11,15,the,166200,18,human,female,72,14,2024-01-20T04:02:17.4687474Z,14
channeler,12,14,the,165980,15,human,female,72,15,2024-01-20T04:02:17.4687474Z,16
channeler,12,14,the,165810,17,human,female,72,14,2024-01-20T04:02:17.4687474Z,15
channeler,13,13,the,165651,14,human,female,72,14,2024-01-20T04:02:15.5724123Z,18
channeler,13,15,the,165576,15,human,female,72,14,2024-01-20T04:02:15.5724123Z,15
channeler,13,12,the,165514,16,human,female,72,14,2024-01-20T04:02:15.5724123Z,17
channeler,13,13,the,165511,16,human,female,72,14,2024-01-20T04:02:15.5724123Z,16
channeler,14,13,the,165312,14,human,female,72,14,2024-01-20T04:02:15.5724123Z,17
channeler,14,13,the,165194,15,human,female,72,16,2024-01-20T04:02:15.5724123Z,14
channeler,14,15,the,165171,16,human,female,72,13,2024-01-20T04:02:15.5724123Z,14
channeler,14,11,the,165152,16,human,female,72,15,2024-01-20T04:02:15.5724123Z,16
channeler,10,13,the,164426,17,human,female,73,14,2024-01-20T04:02:13.5559796Z,19
channeler,12,16,the,164133,13,human,female,73,13,2024-01-20T04:02:13.5559796Z,19
channeler,12,13,the,164083,14,human,female,73,16,2024-01-20T04:02:13.5559796Z,18
channeler,12,13,the,164056,15,human,female,73,14,2024-01-20T04:02:13.5559796Z,19
channeler,12,15,the,164044,15,human,female,73,14,2024-01-20T04:02:13.5559796Z,17
channeler,12,13,the,164022,15,human,female,73,16,2024-01-20T04:02:13.5559796Z,17
channeler,12,14,the,163907,17,human,female,73,14,2024-01-20T04:02:13.5559796Z,16
channeler,12,15,the,163873,17,human,female,73,16,2024-01-20T04:02:13.5559796Z,13
channeler,14,15,the,163444,15,human,female,73,14,2024-01-20T04:02:12.2113026Z,15
channeler,14,13,the,163413,15,human,female,73,16,2024-01-20T04:02:12.2113026Z,15
channeler,14,13,the,163325,17,human,female,73,14,2024-01-20T04:02:12.2113026Z,15
channeler,16,13,the,163246,14,human,female,73,14,2024-01-20T04:02:12.2113026Z,16
channeler,16,13,the,163240,16,human,female,73,13,2024-01-20T04:02:12.2113026Z,15
channeler,12,15,the,162522,16,human,female,74,14,2024-01-20T04:02:10.9756187Z,17
channeler,12,15,the,162521,16,human,female,74,14,2024-01-20T04:02:10.9756187Z,17
channeler,12,14,the,162502,16,human,female,74,16,2024-01-20T04:02:10.9756187Z,16
channeler,14,14,the,162188,13,human,female,74,18,2024-01-20T04:02:10.9756187Z,15
channeler,14,14,the,162143,14,human,female,74,15,2024-01-20T04:02:10.9756187Z,17
channeler,14,13,the,162059,16,human,female,74,14,2024-01-20T04:02:10.9756187Z,17
channeler,15,15,the,161963,15,human,female,74,12,2024-01-20T04:02:10.9756187Z,17
channeler,15,13,the,161942,15,human,female,74,16,2024-01-20T04:02:10.9756187Z,15
channeler,16,13,the,161929,12,human,female,74,18,2024-01-20T04:02:10.9756187Z,15
channeler,16,15,the,161928,13,human,female,74,14,2024-01-20T04:02:10.9756187Z,16
channeler,11,13,the,161538,18,human,female,75,14,2024-01-20T04:02:10.125686Z,19
channeler,13,14,the,161359,14,human,female,75,17,2024-01-20T04:02:10.125686Z,17
channeler,13,15,the,161343,15,human,female,75,17,2024-01-20T04:02:10.125686Z,15
channeler,14,15,the,161215,15,human,female,75,14,2024-01-20T04:02:10.125686Z,17
channeler,14,17,the,161212,15,human,female,75,14,2024-01-20T04:02:10.125686Z,15
channeler,15,13,the,161086,18,human,female,75,14,2024-01-20T04:02:10.125686Z,15
channeler,12,15,the,160795,17,human,female,76,16,2024-01-20T04:02:10.125686Z,16
channeler,12,15,the,160778,18,human,female,76,16,2024-01-20T04:02:10.125686Z,15
channeler,12,11,the,160777,19,human,female,76,17,2024-01-20T04:02:10.125686Z,17
channeler,12,14,the,160329,19,human,female,77,14,2024-01-20T04:02:08.8266443Z,18
channeler,13,15,the,160311,15,human,female,77,17,2024-01-20T04:02:08.8266443Z,17
channeler,14,14,the,160195,17,human,female,77,14,2024-01-20T04:02:08.8266443Z,18
channeler,14,13,the,160181,17,human,female,77,16,2024-01-20T04:02:08.8266443Z,17
channeler,15,15,the,160132,17,human,female,77,15,2024-01-20T04:02:08.8266443Z,15
